<?xml version="1.0" encoding="UTF-8" standalone="no"?>
<graphml xmlns="http://graphml.graphdrawing.org/xmlns" xmlns:java="http://www.yworks.com/xml/yfiles-common/1.0/java" xmlns:sys="http://www.yworks.com/xml/yfiles-common/markup/primitives/2.0" xmlns:x="http://www.yworks.com/xml/yfiles-common/markup/2.0" xmlns:xsi="http://www.w3.org/2001/XMLSchema-instance" xmlns:y="http://www.yworks.com/xml/graphml" xmlns:yed="http://www.yworks.com/xml/yed/3" xsi:schemaLocation="http://graphml.graphdrawing.org/xmlns http://www.yworks.com/xml/schema/graphml/1.1/ygraphml.xsd">
  <!--Created by yEd 3.20.1-->
  <key attr.name="Beschreibung" attr.type="string" for="graph" id="d0"/>
  <key for="port" id="d1" yfiles.type="portgraphics"/>
  <key for="port" id="d2" yfiles.type="portgeometry"/>
  <key for="port" id="d3" yfiles.type="portuserdata"/>
  <key attr.name="url" attr.type="string" for="node" id="d4"/>
  <key attr.name="description" attr.type="string" for="node" id="d5"/>
  <key for="node" id="d6" yfiles.type="nodegraphics"/>
  <key for="graphml" id="d7" yfiles.type="resources"/>
  <key attr.name="url" attr.type="string" for="edge" id="d8"/>
  <key attr.name="description" attr.type="string" for="edge" id="d9"/>
  <key for="edge" id="d10" yfiles.type="edgegraphics"/>
  <graph edgedefault="directed" id="G">
    <data key="d0" xml:space="preserve"/>
    <node id="n0">
      <data key="d4" xml:space="preserve"><![CDATA[https://alinex.gitlab.io/bash-lib]]></data>
      <data key="d6">
        <y:GenericNode configuration="BevelNodeWithShadow">
          <y:Geometry height="32.0" width="96.0" x="159.0" y="437.19362004597974"/>
          <y:Fill color="#99CCFF" transparent="false"/>
          <y:BorderStyle hasColor="false" type="line" width="1.0"/>
          <y:NodeLabel alignment="center" autoSizePolicy="content" fontFamily="Dialog" fontSize="12" fontStyle="bold" hasBackgroundColor="false" hasLineColor="false" height="17.96875" horizontalTextPosition="center" iconTextGap="4" modelName="custom" textColor="#000000" verticalTextPosition="bottom" visible="true" width="48.578125" x="23.7109375" xml:space="preserve" y="7.015625">Server<y:LabelModel><y:SmartNodeLabelModel distance="4.0"/></y:LabelModel><y:ModelParameter><y:SmartNodeLabelModelParameter labelRatioX="0.0" labelRatioY="0.0" nodeRatioX="0.0" nodeRatioY="0.0" offsetX="0.0" offsetY="0.0" upX="0.0" upY="-1.0"/></y:ModelParameter></y:NodeLabel>
        </y:GenericNode>
      </data>
    </node>
    <node id="n1" yfiles.foldertype="group">
      <data key="d4" xml:space="preserve"/>
      <data key="d6">
        <y:ProxyAutoBoundsNode>
          <y:Realizers active="0">
            <y:GroupNode>
              <y:Geometry height="332.73912747701013" width="728.6666666666667" x="309.3333333333333" y="256.23268254597974"/>
              <y:Fill color="#F2F0D8" transparent="false"/>
              <y:BorderStyle color="#000000" type="line" width="1.0"/>
              <y:NodeLabel alignment="right" autoSizePolicy="node_width" backgroundColor="#B7B69E" borderDistance="0.0" fontFamily="Dialog" fontSize="15" fontStyle="bold" hasLineColor="false" height="21.4609375" horizontalTextPosition="center" iconTextGap="4" modelName="internal" modelPosition="t" textColor="#000000" verticalTextPosition="bottom" visible="true" width="728.6666666666667" x="0.0" xml:space="preserve" y="0.0">Alinex Checkup</y:NodeLabel>
              <y:Shape type="rectangle"/>
              <y:DropShadow color="#D2D2D2" offsetX="4" offsetY="4"/>
              <y:State closed="false" closedHeight="50.0" closedWidth="50.0" innerGraphDisplayEnabled="false"/>
              <y:Insets bottom="5" bottomF="5.0" left="5" leftF="5.0" right="5" rightF="5.0" top="5" topF="5.0"/>
              <y:BorderInsets bottom="23" bottomF="22.77818997701013" left="43" leftF="43.166666666666686" right="50" rightF="50.0" top="37" topF="37.14662679036462"/>
            </y:GroupNode>
            <y:GroupNode>
              <y:Geometry height="285.0" width="536.0" x="318.0" y="255.66666666666666"/>
              <y:Fill color="#F2F0D8" transparent="false"/>
              <y:BorderStyle color="#000000" type="line" width="1.0"/>
              <y:NodeLabel alignment="right" autoSizePolicy="node_width" backgroundColor="#B7B69E" borderDistance="0.0" fontFamily="Dialog" fontSize="15" fontStyle="plain" hasLineColor="false" height="21.4609375" horizontalTextPosition="center" iconTextGap="4" modelName="internal" modelPosition="t" textColor="#000000" verticalTextPosition="bottom" visible="true" width="536.0" x="0.0" xml:space="preserve" y="-2.8421709430404007E-14">3</y:NodeLabel>
              <y:Shape type="rectangle"/>
              <y:DropShadow color="#D2D2D2" offsetX="4" offsetY="4"/>
              <y:State closed="true" closedHeight="285.0" closedWidth="536.0" innerGraphDisplayEnabled="false"/>
              <y:Insets bottom="5" bottomF="5.0" left="5" leftF="5.0" right="5" rightF="5.0" top="5" topF="5.0"/>
              <y:BorderInsets bottom="0" bottomF="0.0" left="0" leftF="0.0" right="0" rightF="0.0" top="0" topF="0.0"/>
            </y:GroupNode>
          </y:Realizers>
        </y:ProxyAutoBoundsNode>
      </data>
      <graph edgedefault="directed" id="n1:">
        <node id="n1::n0">
          <data key="d4" xml:space="preserve"><![CDATA[https://alinex.gitlab.io/node-core]]></data>
          <data key="d6">
            <y:GenericNode configuration="BevelNodeWithShadow">
              <y:Geometry height="32.0" width="96.0" x="357.5" y="529.1936200459797"/>
              <y:Fill color="#FF9900" transparent="false"/>
              <y:BorderStyle hasColor="false" type="line" width="1.0"/>
              <y:NodeLabel alignment="center" autoSizePolicy="content" fontFamily="Dialog" fontSize="12" fontStyle="bold" hasBackgroundColor="false" hasLineColor="false" height="17.96875" horizontalTextPosition="center" iconTextGap="4" modelName="custom" textColor="#000000" verticalTextPosition="bottom" visible="true" width="24.91796875" x="35.541015625" xml:space="preserve" y="7.015625">CLI<y:LabelModel><y:SmartNodeLabelModel distance="4.0"/></y:LabelModel><y:ModelParameter><y:SmartNodeLabelModelParameter labelRatioX="0.0" labelRatioY="0.0" nodeRatioX="0.0" nodeRatioY="0.0" offsetX="0.0" offsetY="0.0" upX="0.0" upY="-1.0"/></y:ModelParameter></y:NodeLabel>
            </y:GenericNode>
          </data>
        </node>
        <node id="n1::n1">
          <data key="d4" xml:space="preserve"><![CDATA[https://alinex.gitlab.io/node-core]]></data>
          <data key="d6">
            <y:GenericNode configuration="BevelNodeWithShadow">
              <y:Geometry height="32.0" width="96.0" x="357.5" y="432.19362004597974"/>
              <y:Fill color="#FF9900" transparent="false"/>
              <y:BorderStyle hasColor="false" type="line" width="1.0"/>
              <y:NodeLabel alignment="center" autoSizePolicy="content" fontFamily="Dialog" fontSize="12" fontStyle="bold" hasBackgroundColor="false" hasLineColor="false" height="17.96875" horizontalTextPosition="center" iconTextGap="4" modelName="custom" textColor="#000000" verticalTextPosition="bottom" visible="true" width="26.546875" x="34.7265625" xml:space="preserve" y="7.015625">API<y:LabelModel><y:SmartNodeLabelModel distance="4.0"/></y:LabelModel><y:ModelParameter><y:SmartNodeLabelModelParameter labelRatioX="0.0" labelRatioY="0.0" nodeRatioX="0.0" nodeRatioY="0.0" offsetX="0.0" offsetY="0.0" upX="0.0" upY="-1.0"/></y:ModelParameter></y:NodeLabel>
            </y:GenericNode>
          </data>
        </node>
        <node id="n1::n2">
          <data key="d4" xml:space="preserve"><![CDATA[https://alinex.gitlab.io/node-core]]></data>
          <data key="d6">
            <y:GenericNode configuration="BevelNodeWithShadow">
              <y:Geometry height="32.0" width="96.0" x="710.5" y="467.19362004597974"/>
              <y:Fill color="#FF9900" transparent="false"/>
              <y:BorderStyle hasColor="false" type="line" width="1.0"/>
              <y:NodeLabel alignment="center" autoSizePolicy="content" fontFamily="Dialog" fontSize="12" fontStyle="bold" hasBackgroundColor="false" hasLineColor="false" height="17.96875" horizontalTextPosition="center" iconTextGap="4" modelName="custom" textColor="#000000" verticalTextPosition="bottom" visible="true" width="52.92578125" x="21.537109375" xml:space="preserve" y="7.015625">Runner<y:LabelModel><y:SmartNodeLabelModel distance="4.0"/></y:LabelModel><y:ModelParameter><y:SmartNodeLabelModelParameter labelRatioX="0.0" labelRatioY="0.0" nodeRatioX="0.0" nodeRatioY="0.0" offsetX="0.0" offsetY="0.0" upX="0.0" upY="-1.0"/></y:ModelParameter></y:NodeLabel>
            </y:GenericNode>
          </data>
        </node>
        <node id="n1::n3">
          <data key="d4" xml:space="preserve"><![CDATA[https://alinex.gitlab.io/node-core]]></data>
          <data key="d6">
            <y:GenericNode configuration="BevelNodeWithShadow">
              <y:Geometry height="32.0" width="96.0" x="534.0" y="467.19362004597974"/>
              <y:Fill color="#FF9900" transparent="false"/>
              <y:BorderStyle hasColor="false" type="line" width="1.0"/>
              <y:NodeLabel alignment="center" autoSizePolicy="content" fontFamily="Dialog" fontSize="12" fontStyle="bold" hasBackgroundColor="false" hasLineColor="false" height="17.96875" horizontalTextPosition="center" iconTextGap="4" modelName="custom" textColor="#000000" verticalTextPosition="bottom" visible="true" width="39.173828125" x="28.4130859375" xml:space="preserve" y="7.015625">Suite<y:LabelModel><y:SmartNodeLabelModel distance="4.0"/></y:LabelModel><y:ModelParameter><y:SmartNodeLabelModelParameter labelRatioX="0.0" labelRatioY="0.0" nodeRatioX="0.0" nodeRatioY="0.0" offsetX="0.0" offsetY="0.0" upX="0.0" upY="-1.0"/></y:ModelParameter></y:NodeLabel>
            </y:GenericNode>
          </data>
        </node>
        <node id="n1::n4">
          <data key="d4" xml:space="preserve"><![CDATA[https://alinex.gitlab.io/node-core]]></data>
          <data key="d6">
            <y:GenericNode configuration="BevelNodeWithShadow">
              <y:Geometry height="32.0" width="96.0" x="710.5" y="336.09681002298987"/>
              <y:Fill color="#C0C0C0" transparent="false"/>
              <y:BorderStyle hasColor="false" type="line" width="1.0"/>
              <y:NodeLabel alignment="center" autoSizePolicy="content" fontFamily="Dialog" fontSize="12" fontStyle="bold" hasBackgroundColor="false" hasLineColor="false" height="17.96875" horizontalTextPosition="center" iconTextGap="4" modelName="custom" textColor="#000000" verticalTextPosition="bottom" visible="true" width="33.203125" x="31.3984375" xml:space="preserve" y="7.015625">Test<y:LabelModel><y:SmartNodeLabelModel distance="4.0"/></y:LabelModel><y:ModelParameter><y:SmartNodeLabelModelParameter labelRatioX="0.0" labelRatioY="0.0" nodeRatioX="0.0" nodeRatioY="0.0" offsetX="0.0" offsetY="0.0" upX="0.0" upY="-1.0"/></y:ModelParameter></y:NodeLabel>
            </y:GenericNode>
          </data>
        </node>
        <node id="n1::n5">
          <data key="d4" xml:space="preserve"><![CDATA[https://alinex.gitlab.io/node-core]]></data>
          <data key="d6">
            <y:GenericNode configuration="BevelNodeWithShadow">
              <y:Geometry height="32.0" width="96.0" x="887.0" y="336.09681002298987"/>
              <y:Fill color="#C0C0C0" transparent="false"/>
              <y:BorderStyle hasColor="false" type="line" width="1.0"/>
              <y:NodeLabel alignment="center" autoSizePolicy="content" fontFamily="Dialog" fontSize="12" fontStyle="bold" hasBackgroundColor="false" hasLineColor="false" height="17.96875" horizontalTextPosition="center" iconTextGap="4" modelName="custom" textColor="#000000" verticalTextPosition="bottom" visible="true" width="24.05078125" x="35.974609375" xml:space="preserve" y="7.015625">Fix<y:LabelModel><y:SmartNodeLabelModel distance="4.0"/></y:LabelModel><y:ModelParameter><y:SmartNodeLabelModelParameter labelRatioX="0.0" labelRatioY="0.0" nodeRatioX="0.0" nodeRatioY="0.0" offsetX="0.0" offsetY="0.0" upX="0.0" upY="-1.0"/></y:ModelParameter></y:NodeLabel>
            </y:GenericNode>
          </data>
        </node>
        <node id="n1::n6">
          <data key="d4" xml:space="preserve"><![CDATA[https://alinex.gitlab.io/node-core]]></data>
          <data key="d6">
            <y:GenericNode configuration="BevelNodeWithShadow">
              <y:Geometry height="32.0" width="96.0" x="534.0" y="336.09681002298987"/>
              <y:Fill color="#C0C0C0" transparent="false"/>
              <y:BorderStyle hasColor="false" type="line" width="1.0"/>
              <y:NodeLabel alignment="center" autoSizePolicy="content" fontFamily="Dialog" fontSize="12" fontStyle="bold" hasBackgroundColor="false" hasLineColor="false" height="17.96875" horizontalTextPosition="center" iconTextGap="4" modelName="custom" textColor="#000000" verticalTextPosition="bottom" visible="true" width="45.14453125" x="25.427734375" xml:space="preserve" y="7.015625">Group<y:LabelModel><y:SmartNodeLabelModel distance="4.0"/></y:LabelModel><y:ModelParameter><y:SmartNodeLabelModelParameter labelRatioX="0.0" labelRatioY="0.0" nodeRatioX="0.0" nodeRatioY="0.0" offsetX="0.0" offsetY="0.0" upX="0.0" upY="-1.0"/></y:ModelParameter></y:NodeLabel>
            </y:GenericNode>
          </data>
        </node>
        <node id="n1::n7">
          <data key="d4" xml:space="preserve"><![CDATA[https://alinex.gitlab.io/node-core]]></data>
          <data key="d6">
            <y:GenericNode configuration="BevelNodeWithShadow">
              <y:Geometry height="32.0" width="96.0" x="887.0" y="368.09681002298987"/>
              <y:Fill color="#C0C0C0" transparent="false"/>
              <y:BorderStyle hasColor="false" type="line" width="1.0"/>
              <y:NodeLabel alignment="center" autoSizePolicy="content" fontFamily="Dialog" fontSize="12" fontStyle="bold" hasBackgroundColor="false" hasLineColor="false" height="17.96875" horizontalTextPosition="center" iconTextGap="4" modelName="custom" textColor="#000000" verticalTextPosition="bottom" visible="true" width="56.986328125" x="19.5068359375" xml:space="preserve" y="7.015625">Analyze<y:LabelModel><y:SmartNodeLabelModel distance="4.0"/></y:LabelModel><y:ModelParameter><y:SmartNodeLabelModelParameter labelRatioX="0.0" labelRatioY="0.0" nodeRatioX="0.0" nodeRatioY="0.0" offsetX="0.0" offsetY="0.0" upX="0.0" upY="-1.0"/></y:ModelParameter></y:NodeLabel>
            </y:GenericNode>
          </data>
        </node>
        <node id="n1::n8">
          <data key="d4" xml:space="preserve"><![CDATA[https://alinex.gitlab.io/node-core]]></data>
          <data key="d6">
            <y:GenericNode configuration="BevelNodeWithShadow">
              <y:Geometry height="32.0" width="96.0" x="887.0" y="400.09681002298987"/>
              <y:Fill color="#C0C0C0" transparent="false"/>
              <y:BorderStyle hasColor="false" type="line" width="1.0"/>
              <y:NodeLabel alignment="center" autoSizePolicy="content" fontFamily="Dialog" fontSize="12" fontStyle="bold" hasBackgroundColor="false" hasLineColor="false" height="17.96875" horizontalTextPosition="center" iconTextGap="4" modelName="custom" textColor="#000000" verticalTextPosition="bottom" visible="true" width="48.09765625" x="23.951171875" xml:space="preserve" y="7.015625">Repair<y:LabelModel><y:SmartNodeLabelModel distance="4.0"/></y:LabelModel><y:ModelParameter><y:SmartNodeLabelModelParameter labelRatioX="0.0" labelRatioY="0.0" nodeRatioX="0.0" nodeRatioY="0.0" offsetX="0.0" offsetY="0.0" upX="0.0" upY="-1.0"/></y:ModelParameter></y:NodeLabel>
            </y:GenericNode>
          </data>
        </node>
        <node id="n1::n9">
          <data key="d4" xml:space="preserve"><![CDATA[https://alinex.gitlab.io/node-core]]></data>
          <data key="d6">
            <y:GenericNode configuration="BevelNodeWithShadow">
              <y:Geometry height="32.0" width="96.0" x="534.0" y="499.19362004597974"/>
              <y:Fill color="#C0C0C0" transparent="false"/>
              <y:BorderStyle hasColor="false" type="line" width="1.0"/>
              <y:NodeLabel alignment="center" autoSizePolicy="content" fontFamily="Dialog" fontSize="12" fontStyle="bold" hasBackgroundColor="false" hasLineColor="false" height="17.96875" horizontalTextPosition="center" iconTextGap="4" modelName="custom" textColor="#000000" verticalTextPosition="bottom" visible="true" width="44.69921875" x="25.650390625" xml:space="preserve" y="7.015625">Cache<y:LabelModel><y:SmartNodeLabelModel distance="4.0"/></y:LabelModel><y:ModelParameter><y:SmartNodeLabelModelParameter labelRatioX="0.0" labelRatioY="0.0" nodeRatioX="0.0" nodeRatioY="0.0" offsetX="0.0" offsetY="0.0" upX="0.0" upY="-1.0"/></y:ModelParameter></y:NodeLabel>
            </y:GenericNode>
          </data>
        </node>
        <node id="n1::n10">
          <data key="d4" xml:space="preserve"><![CDATA[https://alinex.gitlab.io/node-core]]></data>
          <data key="d6">
            <y:GenericNode configuration="BevelNodeWithShadow">
              <y:Geometry height="32.0" width="96.0" x="710.5" y="529.1936200459797"/>
              <y:Fill color="#C0C0C0" transparent="false"/>
              <y:BorderStyle hasColor="false" type="line" width="1.0"/>
              <y:NodeLabel alignment="center" autoSizePolicy="content" fontFamily="Dialog" fontSize="12" fontStyle="bold" hasBackgroundColor="false" hasLineColor="false" height="17.96875" horizontalTextPosition="center" iconTextGap="4" modelName="custom" textColor="#000000" verticalTextPosition="bottom" visible="true" width="40.6796875" x="27.66015625" xml:space="preserve" y="7.015625">Store<y:LabelModel><y:SmartNodeLabelModel distance="4.0"/></y:LabelModel><y:ModelParameter><y:SmartNodeLabelModelParameter labelRatioX="0.0" labelRatioY="0.0" nodeRatioX="0.0" nodeRatioY="0.0" offsetX="0.0" offsetY="0.0" upX="0.0" upY="-1.0"/></y:ModelParameter></y:NodeLabel>
            </y:GenericNode>
          </data>
        </node>
        <node id="n1::n11">
          <data key="d4" xml:space="preserve"><![CDATA[https://alinex.gitlab.io/node-core]]></data>
          <data key="d6">
            <y:GenericNode configuration="BevelNodeWithShadow">
              <y:Geometry height="32.0" width="96.0" x="534.0" y="414.6022462844848"/>
              <y:Fill color="#C0C0C0" transparent="false"/>
              <y:BorderStyle hasColor="false" type="line" width="1.0"/>
              <y:NodeLabel alignment="center" autoSizePolicy="content" fontFamily="Dialog" fontSize="12" fontStyle="bold" hasBackgroundColor="false" hasLineColor="false" height="17.96875" horizontalTextPosition="center" iconTextGap="4" modelName="custom" textColor="#000000" verticalTextPosition="bottom" visible="true" width="71.740234375" x="12.1298828125" xml:space="preserve" y="7.015625">Scheduler<y:LabelModel><y:SmartNodeLabelModel distance="4.0"/></y:LabelModel><y:ModelParameter><y:SmartNodeLabelModelParameter labelRatioX="0.0" labelRatioY="0.0" nodeRatioX="0.0" nodeRatioY="0.0" offsetX="0.0" offsetY="0.0" upX="0.0" upY="-1.0"/></y:ModelParameter></y:NodeLabel>
            </y:GenericNode>
          </data>
        </node>
        <node id="n1::n12">
          <data key="d6">
            <y:GenericNode configuration="com.yworks.bpmn.Artifact.withShadow">
              <y:Geometry height="64.51312637329102" width="48.0" x="381.5" y="319.84024683634436"/>
              <y:Fill color="#FFFFFFE6" transparent="false"/>
              <y:BorderStyle color="#000000" type="line" width="1.0"/>
              <y:NodeLabel alignment="center" autoSizePolicy="content" fontFamily="Dialog" fontSize="12" fontStyle="plain" hasBackgroundColor="false" hasLineColor="false" height="59.875" horizontalTextPosition="center" iconTextGap="4" modelName="custom" textColor="#000000" verticalTextPosition="bottom" visible="true" width="42.501953125" x="2.7490234375" xml:space="preserve" y="23.727275264574814">Case
Config

  <y:LabelModel><y:SmartNodeLabelModel distance="4.0"/></y:LabelModel><y:ModelParameter><y:SmartNodeLabelModelParameter labelRatioX="0.0" labelRatioY="0.18118331705580237" nodeRatioX="0.0" nodeRatioY="0.5" offsetX="0.0" offsetY="0.0" upX="0.0" upY="-1.0"/></y:ModelParameter></y:NodeLabel>
              <y:StyleProperties>
                <y:Property class="java.awt.Color" name="com.yworks.bpmn.icon.line.color" value="#000000"/>
                <y:Property class="java.awt.Color" name="com.yworks.bpmn.icon.fill2" value="#d4d4d4cc"/>
                <y:Property class="java.awt.Color" name="com.yworks.bpmn.icon.fill" value="#ffffffe6"/>
                <y:Property class="com.yworks.yfiles.bpmn.view.BPMNTypeEnum" name="com.yworks.bpmn.type" value="ARTIFACT_TYPE_DATA_OBJECT"/>
                <y:Property class="com.yworks.yfiles.bpmn.view.DataObjectTypeEnum" name="com.yworks.bpmn.dataObjectType" value="DATA_OBJECT_TYPE_PLAIN"/>
              </y:StyleProperties>
            </y:GenericNode>
          </data>
        </node>
      </graph>
    </node>
    <node id="n2">
      <data key="d6">
        <y:SVGNode>
          <y:Geometry height="69.94900512695312" width="56.554100036621094" x="178.72294998168945" y="624.9807879130046"/>
          <y:Fill color="#CCCCFF" transparent="false"/>
          <y:BorderStyle color="#000000" type="line" width="1.0"/>
          <y:NodeLabel alignment="center" autoSizePolicy="content" backgroundColor="#FFFFFF" fontFamily="Dialog" fontSize="12" fontStyle="plain" hasLineColor="false" height="17.96875" horizontalTextPosition="center" iconTextGap="4" modelName="custom" textColor="#000000" verticalTextPosition="bottom" visible="true" width="42.455078125" x="7.049510955810547" xml:space="preserve" y="73.94900512695312">Admin<y:LabelModel><y:SmartNodeLabelModel distance="4.0"/></y:LabelModel><y:ModelParameter><y:SmartNodeLabelModelParameter labelRatioX="0.0" labelRatioY="-0.5" nodeRatioX="0.0" nodeRatioY="0.5" offsetX="0.0" offsetY="4.0" upX="0.0" upY="-1.0"/></y:ModelParameter></y:NodeLabel>
          <y:SVGNodeProperties usingVisualBounds="true"/>
          <y:SVGModel svgBoundsPolicy="0">
            <y:SVGContent refid="1"/>
          </y:SVGModel>
        </y:SVGNode>
      </data>
    </node>
    <node id="n3">
      <data key="d4" xml:space="preserve"><![CDATA[https://alinex.gitlab.io/bash-lib]]></data>
      <data key="d6">
        <y:GenericNode configuration="BevelNodeWithShadow">
          <y:Geometry height="32.0" width="96.0" x="48.0" y="499.19362004597974"/>
          <y:Fill color="#C0C0C0" transparent="false"/>
          <y:BorderStyle hasColor="false" type="line" width="1.0"/>
          <y:NodeLabel alignment="center" autoSizePolicy="content" fontFamily="Dialog" fontSize="12" fontStyle="bold" hasBackgroundColor="false" hasLineColor="false" height="17.96875" horizontalTextPosition="center" iconTextGap="4" modelName="custom" textColor="#000000" verticalTextPosition="bottom" visible="true" width="77.986328125" x="9.0068359375" xml:space="preserve" y="7.015625">Monitoring<y:LabelModel><y:SmartNodeLabelModel distance="4.0"/></y:LabelModel><y:ModelParameter><y:SmartNodeLabelModelParameter labelRatioX="0.0" labelRatioY="0.0" nodeRatioX="0.0" nodeRatioY="0.0" offsetX="0.0" offsetY="0.0" upX="0.0" upY="-1.0"/></y:ModelParameter></y:NodeLabel>
        </y:GenericNode>
      </data>
    </node>
    <node id="n4">
      <data key="d6">
        <y:SVGNode>
          <y:Geometry height="59.077247619628906" width="66.61650085449219" x="901.6917495727539" y="630.4166666666667"/>
          <y:Fill color="#CCCCFF" transparent="false"/>
          <y:BorderStyle color="#000000" type="line" width="1.0"/>
          <y:NodeLabel alignment="center" autoSizePolicy="content" backgroundColor="#FFFFFF" fontFamily="Dialog" fontSize="12" fontStyle="plain" hasLineColor="false" height="17.96875" horizontalTextPosition="center" iconTextGap="4" modelName="custom" textColor="#000000" verticalTextPosition="bottom" visible="true" width="96.87109375" x="-15.127296447753906" xml:space="preserve" y="63.077247619628906">Unit under Test<y:LabelModel><y:SmartNodeLabelModel distance="4.0"/></y:LabelModel><y:ModelParameter><y:SmartNodeLabelModelParameter labelRatioX="0.0" labelRatioY="-0.5" nodeRatioX="0.0" nodeRatioY="0.5" offsetX="0.0" offsetY="4.0" upX="0.0" upY="-1.0"/></y:ModelParameter></y:NodeLabel>
          <y:SVGNodeProperties usingVisualBounds="false"/>
          <y:SVGModel svgBoundsPolicy="0">
            <y:SVGContent refid="2"/>
          </y:SVGModel>
        </y:SVGNode>
      </data>
    </node>
    <node id="n5">
      <data key="d6">
        <y:SVGNode>
          <y:Geometry height="46.887996673583984" width="39.527000427246094" x="679.736499786377" y="636.5112921396892"/>
          <y:Fill color="#CCCCFF" transparent="false"/>
          <y:BorderStyle color="#000000" type="line" width="1.0"/>
          <y:NodeLabel alignment="center" autoSizePolicy="content" backgroundColor="#FFFFFF" fontFamily="Dialog" fontSize="12" fontStyle="plain" hasLineColor="false" height="17.96875" horizontalTextPosition="center" iconTextGap="4" modelName="custom" textColor="#000000" verticalTextPosition="bottom" visible="true" width="137.265625" x="-48.86931228637695" xml:space="preserve" y="50.887996673583984">Database / Filesystem<y:LabelModel><y:SmartNodeLabelModel distance="4.0"/></y:LabelModel><y:ModelParameter><y:SmartNodeLabelModelParameter labelRatioX="0.0" labelRatioY="-0.5" nodeRatioX="0.0" nodeRatioY="0.5" offsetX="0.0" offsetY="4.0" upX="0.0" upY="-1.0"/></y:ModelParameter></y:NodeLabel>
          <y:SVGNodeProperties usingVisualBounds="true"/>
          <y:SVGModel svgBoundsPolicy="0">
            <y:SVGContent refid="3"/>
          </y:SVGModel>
        </y:SVGNode>
      </data>
    </node>
    <node id="n6">
      <data key="d4" xml:space="preserve"><![CDATA[https://alinex.gitlab.io/bash-lib]]></data>
      <data key="d6">
        <y:GenericNode configuration="BevelNodeWithShadow">
          <y:Geometry height="32.0" width="96.0" x="357.5" y="643.9552904764812"/>
          <y:Fill color="#C0C0C0" transparent="false"/>
          <y:BorderStyle hasColor="false" type="line" width="1.0"/>
          <y:NodeLabel alignment="center" autoSizePolicy="content" fontFamily="Dialog" fontSize="12" fontStyle="bold" hasBackgroundColor="false" hasLineColor="false" height="17.96875" horizontalTextPosition="center" iconTextGap="4" modelName="custom" textColor="#000000" verticalTextPosition="bottom" visible="true" width="94.861328125" x="0.5693359375" xml:space="preserve" y="7.015625">Table / Graph<y:LabelModel><y:SmartNodeLabelModel distance="4.0"/></y:LabelModel><y:ModelParameter><y:SmartNodeLabelModelParameter labelRatioX="0.0" labelRatioY="0.0" nodeRatioX="0.0" nodeRatioY="0.0" offsetX="0.0" offsetY="0.0" upX="0.0" upY="-1.0"/></y:ModelParameter></y:NodeLabel>
        </y:GenericNode>
      </data>
    </node>
    <node id="n7">
      <data key="d4" xml:space="preserve"><![CDATA[https://alinex.gitlab.io/bash-lib]]></data>
      <data key="d6">
        <y:GenericNode configuration="BevelNodeWithShadow">
          <y:Geometry height="32.0" width="96.0" x="159.0" y="499.19362004597974"/>
          <y:Fill color="#99CCFF" transparent="false"/>
          <y:BorderStyle hasColor="false" type="line" width="1.0"/>
          <y:NodeLabel alignment="center" autoSizePolicy="content" fontFamily="Dialog" fontSize="12" fontStyle="bold" hasBackgroundColor="false" hasLineColor="false" height="17.96875" horizontalTextPosition="center" iconTextGap="4" modelName="custom" textColor="#000000" verticalTextPosition="bottom" visible="true" width="28.05859375" x="33.970703125" xml:space="preserve" y="7.015625">GUI<y:LabelModel><y:SmartNodeLabelModel distance="4.0"/></y:LabelModel><y:ModelParameter><y:SmartNodeLabelModelParameter labelRatioX="0.0" labelRatioY="0.0" nodeRatioX="0.0" nodeRatioY="0.0" offsetX="0.0" offsetY="0.0" upX="0.0" upY="-1.0"/></y:ModelParameter></y:NodeLabel>
        </y:GenericNode>
      </data>
    </node>
    <node id="n8">
      <data key="d5"/>
      <data key="d6">
        <y:ImageNode>
          <y:Geometry height="48.0" width="48.0" x="786.4776248931885" y="635.9552904764812"/>
          <y:Fill color="#FFFFFF" color2="#FFFFFF" transparent="false"/>
          <y:BorderStyle color="#FFFFFF" type="line" width="1.0"/>
          <y:NodeLabel alignment="center" autoSizePolicy="content" backgroundColor="#FFFFFF" fontFamily="Dialog" fontSize="12" fontStyle="plain" hasLineColor="false" height="17.96875" horizontalTextPosition="center" iconTextGap="4" modelName="sandwich" modelPosition="s" textColor="#000000" verticalTextPosition="bottom" visible="true" width="37.29296875" x="5.353515625" xml:space="preserve" y="52.0">Email</y:NodeLabel>
          <y:Image alphaImage="true" refid="4"/>
        </y:ImageNode>
      </data>
    </node>
    <node id="n9">
      <data key="d5"/>
      <data key="d6">
        <y:ImageNode>
          <y:Geometry height="80.0" width="73.0" x="175.5" y="256.23268254597974"/>
          <y:Fill color="#CCCCFF" transparent="false"/>
          <y:BorderStyle color="#000000" type="line" width="1.0"/>
          <y:NodeLabel alignment="center" autoSizePolicy="content" backgroundColor="#FFFFFF" fontFamily="Dialog" fontSize="12" fontStyle="plain" hasLineColor="false" height="17.96875" horizontalTextPosition="center" iconTextGap="4" modelName="sandwich" modelPosition="s" textColor="#000000" verticalTextPosition="bottom" visible="true" width="107.06640625" x="-17.033203125" xml:space="preserve" y="84.0">systemd / deploy</y:NodeLabel>
          <y:Image alphaImage="true" refid="5"/>
        </y:ImageNode>
      </data>
    </node>
    <edge id="e0" source="n0" target="n0">
      <data key="d10">
        <y:QuadCurveEdge straightness="0.1">
          <y:Path sx="0.0" sy="0.0" tx="0.0" ty="0.0"/>
          <y:LineStyle color="#000000" type="line" width="1.0"/>
          <y:Arrows source="none" target="standard"/>
        </y:QuadCurveEdge>
      </data>
    </edge>
    <edge id="e1" source="n1" target="n1">
      <data key="d10">
        <y:QuadCurveEdge straightness="0.1">
          <y:Path sx="0.0" sy="0.0" tx="0.0" ty="0.0"/>
          <y:LineStyle color="#000000" type="line" width="1.0"/>
          <y:Arrows source="none" target="standard"/>
        </y:QuadCurveEdge>
      </data>
    </edge>
    <edge id="e2" source="n1" target="n1">
      <data key="d10">
        <y:QuadCurveEdge straightness="0.1">
          <y:Path sx="0.0" sy="0.0" tx="0.0" ty="0.0"/>
          <y:LineStyle color="#000000" type="line" width="1.0"/>
          <y:Arrows source="none" target="standard"/>
        </y:QuadCurveEdge>
      </data>
    </edge>
    <edge id="e3" source="n1" target="n1">
      <data key="d10">
        <y:QuadCurveEdge straightness="0.1">
          <y:Path sx="0.0" sy="0.0" tx="0.0" ty="0.0"/>
          <y:LineStyle color="#000000" type="line" width="1.0"/>
          <y:Arrows source="none" target="standard"/>
        </y:QuadCurveEdge>
      </data>
    </edge>
    <edge id="e4" source="n1" target="n1">
      <data key="d10">
        <y:QuadCurveEdge straightness="0.1">
          <y:Path sx="0.0" sy="0.0" tx="0.0" ty="0.0"/>
          <y:LineStyle color="#000000" type="line" width="1.0"/>
          <y:Arrows source="none" target="standard"/>
        </y:QuadCurveEdge>
      </data>
    </edge>
    <edge id="n1::e0" source="n1::n0" target="n1::n0">
      <data key="d10">
        <y:QuadCurveEdge straightness="0.1">
          <y:Path sx="0.0" sy="0.0" tx="0.0" ty="0.0"/>
          <y:LineStyle color="#000000" type="line" width="1.0"/>
          <y:Arrows source="none" target="standard"/>
        </y:QuadCurveEdge>
      </data>
    </edge>
    <edge id="n1::e1" source="n1::n1" target="n1::n1">
      <data key="d10">
        <y:QuadCurveEdge straightness="0.1">
          <y:Path sx="0.0" sy="0.0" tx="0.0" ty="0.0"/>
          <y:LineStyle color="#000000" type="line" width="1.0"/>
          <y:Arrows source="none" target="standard"/>
        </y:QuadCurveEdge>
      </data>
    </edge>
    <edge id="e5" source="n0" target="n1::n1">
      <data key="d10">
        <y:QuadCurveEdge straightness="0.1">
          <y:Path sx="0.0" sy="0.0" tx="0.0" ty="0.0"/>
          <y:LineStyle color="#FF0000" type="line" width="2.0"/>
          <y:Arrows source="none" target="standard"/>
        </y:QuadCurveEdge>
      </data>
    </edge>
    <edge id="n1::e2" source="n1::n0" target="n1::n1">
      <data key="d10">
        <y:QuadCurveEdge straightness="0.1">
          <y:Path sx="0.0" sy="0.0" tx="0.0" ty="0.0"/>
          <y:LineStyle color="#FF0000" type="line" width="2.0"/>
          <y:Arrows source="none" target="standard"/>
        </y:QuadCurveEdge>
      </data>
    </edge>
    <edge id="e6" source="n2" target="n1::n0">
      <data key="d10">
        <y:QuadCurveEdge straightness="0.1">
          <y:Path sx="0.0" sy="0.0" tx="-48.0029296875" ty="0.0"/>
          <y:LineStyle color="#FF0000" type="dashed" width="2.0"/>
          <y:Arrows source="none" target="standard"/>
        </y:QuadCurveEdge>
      </data>
    </edge>
    <edge id="n1::e3" source="n1::n2" target="n1::n2">
      <data key="d10">
        <y:QuadCurveEdge straightness="0.1">
          <y:Path sx="0.0" sy="0.0" tx="0.0" ty="0.0"/>
          <y:LineStyle color="#000000" type="line" width="1.0"/>
          <y:Arrows source="none" target="standard"/>
        </y:QuadCurveEdge>
      </data>
    </edge>
    <edge id="n1::e4" source="n1::n3" target="n1::n3">
      <data key="d10">
        <y:QuadCurveEdge straightness="0.1">
          <y:Path sx="0.0" sy="0.0" tx="0.0" ty="0.0"/>
          <y:LineStyle color="#000000" type="line" width="1.0"/>
          <y:Arrows source="none" target="standard"/>
        </y:QuadCurveEdge>
      </data>
    </edge>
    <edge id="e7" source="n1" target="n1">
      <data key="d10">
        <y:QuadCurveEdge straightness="0.1">
          <y:Path sx="0.0" sy="0.0" tx="0.0" ty="0.0"/>
          <y:LineStyle color="#000000" type="line" width="1.0"/>
          <y:Arrows source="none" target="standard"/>
        </y:QuadCurveEdge>
      </data>
    </edge>
    <edge id="n1::e5" source="n1::n1" target="n1::n3">
      <data key="d10">
        <y:QuadCurveEdge straightness="0.1">
          <y:Path sx="0.0" sy="0.0" tx="0.0" ty="0.0"/>
          <y:LineStyle color="#FF0000" type="line" width="2.0"/>
          <y:Arrows source="none" target="standard"/>
        </y:QuadCurveEdge>
      </data>
    </edge>
    <edge id="n1::e6" source="n1::n3" target="n1::n2">
      <data key="d10">
        <y:QuadCurveEdge straightness="0.1">
          <y:Path sx="0.0" sy="0.0" tx="0.0" ty="0.0"/>
          <y:LineStyle color="#FF0000" type="line" width="2.0"/>
          <y:Arrows source="none" target="standard"/>
        </y:QuadCurveEdge>
      </data>
    </edge>
    <edge id="e8" source="n3" target="n3">
      <data key="d10">
        <y:QuadCurveEdge straightness="0.1">
          <y:Path sx="0.0" sy="0.0" tx="0.0" ty="0.0"/>
          <y:LineStyle color="#000000" type="line" width="1.0"/>
          <y:Arrows source="none" target="standard"/>
        </y:QuadCurveEdge>
      </data>
    </edge>
    <edge id="e9" source="n3" target="n0">
      <data key="d10">
        <y:QuadCurveEdge straightness="0.1">
          <y:Path sx="0.0" sy="0.0" tx="-48.0029296875" ty="0.0"/>
          <y:LineStyle color="#FF0000" type="line" width="2.0"/>
          <y:Arrows source="none" target="standard"/>
        </y:QuadCurveEdge>
      </data>
    </edge>
    <edge id="n1::e7" source="n1::n12" target="n1::n12">
      <data key="d10">
        <y:QuadCurveEdge straightness="0.1">
          <y:Path sx="0.0" sy="0.0" tx="0.0" ty="0.0"/>
          <y:LineStyle color="#000000" type="line" width="1.0"/>
          <y:Arrows source="none" target="standard"/>
        </y:QuadCurveEdge>
      </data>
    </edge>
    <edge id="n1::e8" source="n1::n4" target="n1::n4">
      <data key="d10">
        <y:QuadCurveEdge straightness="0.1">
          <y:Path sx="0.0" sy="0.0" tx="0.0" ty="0.0"/>
          <y:LineStyle color="#000000" type="line" width="1.0"/>
          <y:Arrows source="none" target="standard"/>
        </y:QuadCurveEdge>
      </data>
    </edge>
    <edge id="n1::e9" source="n1::n5" target="n1::n5">
      <data key="d10">
        <y:QuadCurveEdge straightness="0.1">
          <y:Path sx="0.0" sy="0.0" tx="0.0" ty="0.0"/>
          <y:LineStyle color="#000000" type="line" width="1.0"/>
          <y:Arrows source="none" target="standard"/>
        </y:QuadCurveEdge>
      </data>
    </edge>
    <edge id="n1::e10" source="n1::n2" target="n1::n4">
      <data key="d10">
        <y:QuadCurveEdge straightness="0.1">
          <y:Path sx="0.0" sy="0.0" tx="0.0" ty="0.0"/>
          <y:LineStyle color="#FF0000" type="line" width="2.0"/>
          <y:Arrows source="none" target="standard"/>
        </y:QuadCurveEdge>
      </data>
    </edge>
    <edge id="n1::e11" source="n1::n4" target="n1::n5">
      <data key="d10">
        <y:QuadCurveEdge straightness="0.1">
          <y:Path sx="0.0" sy="0.0" tx="0.0" ty="0.0"/>
          <y:LineStyle color="#FF0000" type="line" width="2.0"/>
          <y:Arrows source="none" target="standard"/>
        </y:QuadCurveEdge>
      </data>
    </edge>
    <edge id="n1::e12" source="n1::n6" target="n1::n6">
      <data key="d10">
        <y:QuadCurveEdge straightness="0.1">
          <y:Path sx="0.0" sy="0.0" tx="0.0" ty="0.0"/>
          <y:LineStyle color="#000000" type="line" width="1.0"/>
          <y:Arrows source="none" target="standard"/>
        </y:QuadCurveEdge>
      </data>
    </edge>
    <edge id="n1::e13" source="n1::n4" target="n1::n4">
      <data key="d10">
        <y:QuadCurveEdge straightness="0.1">
          <y:Path sx="0.0" sy="0.0" tx="0.0" ty="0.0"/>
          <y:LineStyle color="#000000" type="line" width="1.0"/>
          <y:Arrows source="none" target="standard"/>
        </y:QuadCurveEdge>
      </data>
    </edge>
    <edge id="n1::e14" source="n1::n4" target="n1::n4">
      <data key="d10">
        <y:QuadCurveEdge straightness="0.1">
          <y:Path sx="0.0" sy="0.0" tx="5.0" ty="0.0"/>
          <y:LineStyle color="#000000" type="line" width="1.0"/>
          <y:Arrows source="none" target="standard"/>
        </y:QuadCurveEdge>
      </data>
    </edge>
    <edge id="n1::e15" source="n1::n2" target="n1::n6">
      <data key="d10">
        <y:QuadCurveEdge straightness="0.1">
          <y:Path sx="0.0" sy="0.0" tx="0.0" ty="0.0"/>
          <y:LineStyle color="#FF0000" type="line" width="2.0"/>
          <y:Arrows source="none" target="standard"/>
        </y:QuadCurveEdge>
      </data>
    </edge>
    <edge id="n1::e16" source="n1::n4" target="n1::n6">
      <data key="d10">
        <y:QuadCurveEdge straightness="0.1">
          <y:Path sx="0.0" sy="0.0" tx="0.0" ty="0.0"/>
          <y:LineStyle color="#FF0000" type="line" width="2.0"/>
          <y:Arrows source="none" target="standard"/>
        </y:QuadCurveEdge>
      </data>
    </edge>
    <edge id="n1::e17" source="n1::n7" target="n1::n7">
      <data key="d10">
        <y:QuadCurveEdge straightness="0.1">
          <y:Path sx="0.0" sy="0.0" tx="0.0" ty="0.0"/>
          <y:LineStyle color="#000000" type="line" width="1.0"/>
          <y:Arrows source="none" target="standard"/>
        </y:QuadCurveEdge>
      </data>
    </edge>
    <edge id="n1::e18" source="n1::n8" target="n1::n8">
      <data key="d10">
        <y:QuadCurveEdge straightness="0.1">
          <y:Path sx="0.0" sy="0.0" tx="0.0" ty="0.0"/>
          <y:LineStyle color="#000000" type="line" width="1.0"/>
          <y:Arrows source="none" target="standard"/>
        </y:QuadCurveEdge>
      </data>
    </edge>
    <edge id="n1::e19" source="n1::n7" target="n1::n4">
      <data key="d10">
        <y:SplineEdge>
          <y:Path sx="0.0" sy="0.0" tx="18.166666666666742" ty="-0.8333333333333712">
            <y:Point x="1006.6666666666667" y="367.09681002298987"/>
            <y:Point x="981.6666666666667" y="311.2634766896565"/>
            <y:Point x="811.5000000000001" y="305.59681002298987"/>
          </y:Path>
          <y:LineStyle color="#339966" type="line" width="2.0"/>
          <y:Arrows source="none" target="standard"/>
          <y:EdgeLabel alignment="center" configuration="AutoFlippingLabel" distance="2.0" fontFamily="Dialog" fontSize="12" fontStyle="plain" hasBackgroundColor="false" hasLineColor="false" height="17.96875" horizontalTextPosition="center" iconTextGap="4" modelName="custom" preferredPlacement="anywhere" ratio="0.5" textColor="#000000" verticalTextPosition="bottom" visible="true" width="52.509765625" x="-112.63712565104152" xml:space="preserve" y="-79.23565864562994">SubTest<y:LabelModel><y:SmartEdgeLabelModel autoRotationEnabled="false" defaultAngle="0.0" defaultDistance="10.0"/></y:LabelModel><y:ModelParameter><y:SmartEdgeLabelModelParameter angle="0.0" distance="2.4380003291339842" distanceToCenter="false" position="center" ratio="0.5" segment="-2"/></y:ModelParameter><y:PreferredPlacementDescriptor angle="0.0" angleOffsetOnRightSide="0" angleReference="absolute" angleRotationOnRightSide="co" distance="-1.0" frozen="true" placement="anywhere" side="anywhere" sideReference="relative_to_edge_flow"/></y:EdgeLabel>
        </y:SplineEdge>
      </data>
    </edge>
    <edge id="n1::e20" source="n1::n2" target="n1::n7">
      <data key="d10">
        <y:SplineEdge>
          <y:Path sx="0.0" sy="0.0" tx="-48.0029296875" ty="0.0"/>
          <y:LineStyle color="#FF0000" type="line" width="2.0"/>
          <y:Arrows source="none" target="standard"/>
        </y:SplineEdge>
      </data>
    </edge>
    <edge id="n1::e21" source="n1::n2" target="n1::n8">
      <data key="d10">
        <y:SplineEdge>
          <y:Path sx="0.0" sy="0.0" tx="-48.0029296875" ty="0.0"/>
          <y:LineStyle color="#FF0000" type="line" width="2.0"/>
          <y:Arrows source="none" target="standard"/>
        </y:SplineEdge>
      </data>
    </edge>
    <edge id="n1::e22" source="n1::n6" target="n1::n4">
      <data key="d10">
        <y:SplineEdge>
          <y:Path sx="0.0" sy="0.0" tx="0.0" ty="0.0">
            <y:Point x="610.3333333333333" y="307.09681002298987"/>
            <y:Point x="720.0000000000001" y="307.09681002298987"/>
          </y:Path>
          <y:LineStyle color="#339966" type="line" width="2.0"/>
          <y:Arrows source="none" target="standard"/>
          <y:EdgeLabel alignment="center" configuration="AutoFlippingLabel" distance="2.0" fontFamily="Dialog" fontSize="12" fontStyle="plain" hasBackgroundColor="false" hasLineColor="false" height="17.96875" horizontalTextPosition="center" iconTextGap="4" modelName="custom" preferredPlacement="anywhere" ratio="0.5" textColor="#000000" verticalTextPosition="bottom" visible="true" width="97.533203125" x="33.25040690104174" xml:space="preserve" y="-38.00438626607263">Dynamic Group<y:LabelModel><y:SmartEdgeLabelModel autoRotationEnabled="false" defaultAngle="0.0" defaultDistance="10.0"/></y:LabelModel><y:ModelParameter><y:SmartEdgeLabelModelParameter angle="0.0" distance="30.0" distanceToCenter="true" position="center" ratio="0.5" segment="1"/></y:ModelParameter><y:PreferredPlacementDescriptor angle="0.0" angleOffsetOnRightSide="0" angleReference="absolute" angleRotationOnRightSide="co" distance="-1.0" frozen="true" placement="anywhere" side="anywhere" sideReference="relative_to_edge_flow"/></y:EdgeLabel>
        </y:SplineEdge>
      </data>
    </edge>
    <edge id="e10" source="n1::n7" target="n1">
      <data key="d10">
        <y:SplineEdge>
          <y:Path sx="0.0" sy="0.0" tx="0.0" ty="0.0"/>
          <y:LineStyle color="#000000" type="line" width="1.0"/>
          <y:Arrows source="none" target="standard"/>
        </y:SplineEdge>
      </data>
    </edge>
    <edge id="e11" source="n1" target="n1::n7">
      <data key="d10">
        <y:SplineEdge>
          <y:Path sx="158.93958712811187" sy="-82.60034208737044" tx="-8.333333333333258" ty="7.166666666666629"/>
          <y:LineStyle color="#000000" type="line" width="1.0"/>
          <y:Arrows source="none" target="standard"/>
        </y:SplineEdge>
      </data>
    </edge>
    <edge id="n1::e23" source="n1::n4" target="n1::n7">
      <data key="d10">
        <y:SplineEdge>
          <y:Path sx="0.0" sy="0.0" tx="0.0" ty="0.0">
            <y:Point x="815.0000000000001" y="384.09681002298987"/>
          </y:Path>
          <y:LineStyle color="#339966" type="line" width="2.0"/>
          <y:Arrows source="none" target="standard"/>
        </y:SplineEdge>
      </data>
    </edge>
    <edge id="n1::e24" source="n1::n4" target="n1::n4">
      <data key="d10">
        <y:ArcEdge>
          <y:Path sx="0.0" sy="0.0" tx="-5.166666666666629" ty="-8.265177370958554E-6">
            <y:Point x="755.9166259765625" y="352.0968017578125"/>
          </y:Path>
          <y:LineStyle color="#000000" type="line" width="1.0"/>
          <y:Arrows source="none" target="standard"/>
          <y:Arc height="4.13254065279034E-6" ratio="3.199373850293341E-6" type="fixedRatio"/>
        </y:ArcEdge>
      </data>
    </edge>
    <edge id="n1::e25" source="n1::n4" target="n1::n4">
      <data key="d10">
        <y:SplineEdge>
          <y:Path sx="0.0" sy="0.0" tx="0.0" ty="0.0">
            <y:Point x="690.8333333333334" y="359.5968100229898"/>
            <y:Point x="690.8333333333334" y="398.59681002298987"/>
            <y:Point x="730.0" y="398.59681002298987"/>
          </y:Path>
          <y:LineStyle color="#999999" type="line" width="1.0"/>
          <y:Arrows source="none" target="standard"/>
          <y:EdgeLabel alignment="center" configuration="AutoFlippingLabel" distance="2.0" fontFamily="Dialog" fontSize="12" fontStyle="plain" hasBackgroundColor="false" hasLineColor="false" height="31.9375" horizontalTextPosition="center" iconTextGap="4" modelName="custom" preferredPlacement="anywhere" ratio="0.5" textColor="#000000" verticalTextPosition="bottom" visible="true" width="49.22265625" x="-31.145269656253845" xml:space="preserve" y="20.056614933257947">depend
require<y:LabelModel><y:SmartEdgeLabelModel autoRotationEnabled="false" defaultAngle="0.0" defaultDistance="10.0"/></y:LabelModel><y:ModelParameter><y:SmartEdgeLabelModelParameter angle="0.0" distance="30.0" distanceToCenter="true" position="left" ratio="0.0" segment="0"/></y:ModelParameter><y:PreferredPlacementDescriptor angle="0.0" angleOffsetOnRightSide="0" angleReference="absolute" angleRotationOnRightSide="co" distance="-1.0" frozen="true" placement="anywhere" side="anywhere" sideReference="relative_to_edge_flow"/></y:EdgeLabel>
        </y:SplineEdge>
      </data>
    </edge>
    <edge id="n1::e26" source="n1::n9" target="n1::n9">
      <data key="d10">
        <y:QuadCurveEdge straightness="0.1">
          <y:Path sx="0.0" sy="0.0" tx="0.0" ty="0.0"/>
          <y:LineStyle color="#000000" type="line" width="1.0"/>
          <y:Arrows source="none" target="standard"/>
        </y:QuadCurveEdge>
      </data>
    </edge>
    <edge id="e12" source="n1" target="n1">
      <data key="d10">
        <y:SplineEdge>
          <y:Path sx="-18.666666666666742" sy="111.80616892460266" tx="-42.625" ty="111.80616892460266"/>
          <y:LineStyle color="#000000" type="line" width="1.0"/>
          <y:Arrows source="none" target="standard"/>
        </y:SplineEdge>
      </data>
    </edge>
    <edge id="n1::e27" source="n1::n2" target="n1::n9">
      <data key="d10">
        <y:SplineEdge>
          <y:Path sx="0.0" sy="0.0" tx="0.0" ty="0.0">
            <y:Point x="638.3333333333334" y="515.1936200459797"/>
          </y:Path>
          <y:LineStyle color="#FF0000" type="line" width="2.0"/>
          <y:Arrows source="none" target="standard"/>
        </y:SplineEdge>
      </data>
    </edge>
    <edge id="n1::e28" source="n1::n10" target="n1::n10">
      <data key="d10">
        <y:QuadCurveEdge straightness="0.1">
          <y:Path sx="0.0" sy="0.0" tx="0.0" ty="0.0"/>
          <y:LineStyle color="#000000" type="line" width="1.0"/>
          <y:Arrows source="none" target="standard"/>
        </y:QuadCurveEdge>
      </data>
    </edge>
    <edge id="n1::e29" source="n1::n10" target="n1::n10">
      <data key="d10">
        <y:QuadCurveEdge straightness="0.1">
          <y:Path sx="0.0" sy="0.0" tx="0.0" ty="0.0"/>
          <y:LineStyle color="#000000" type="line" width="1.0"/>
          <y:Arrows source="none" target="standard"/>
        </y:QuadCurveEdge>
      </data>
    </edge>
    <edge id="e13" source="n4" target="n4">
      <data key="d10">
        <y:QuadCurveEdge straightness="0.1">
          <y:Path sx="0.0" sy="0.0" tx="0.0" ty="0.0"/>
          <y:LineStyle color="#000000" type="line" width="1.0"/>
          <y:Arrows source="none" target="standard"/>
        </y:QuadCurveEdge>
      </data>
    </edge>
    <edge id="e14" source="n1::n8" target="n4">
      <data key="d10">
        <y:QuadCurveEdge straightness="0.1">
          <y:Path sx="0.0" sy="0.0" tx="0.0" ty="0.0"/>
          <y:LineStyle color="#FF0000" type="line" width="2.0"/>
          <y:Arrows source="none" target="standard"/>
        </y:QuadCurveEdge>
      </data>
    </edge>
    <edge id="n1::e30" source="n1::n2" target="n1::n10">
      <data key="d10">
        <y:QuadCurveEdge straightness="0.1">
          <y:Path sx="0.0" sy="0.0" tx="0.0" ty="8.306379954020258"/>
          <y:LineStyle color="#FF0000" type="line" width="2.0"/>
          <y:Arrows source="none" target="standard"/>
        </y:QuadCurveEdge>
      </data>
    </edge>
    <edge id="e15" source="n1::n10" target="n5">
      <data key="d10">
        <y:QuadCurveEdge straightness="0.1">
          <y:Path sx="0.0" sy="0.0" tx="0.0" ty="0.0"/>
          <y:LineStyle color="#FF0000" type="line" width="2.0"/>
          <y:Arrows source="none" target="standard"/>
        </y:QuadCurveEdge>
      </data>
    </edge>
    <edge id="e16" source="n6" target="n6">
      <data key="d10">
        <y:QuadCurveEdge straightness="0.1">
          <y:Path sx="0.0" sy="0.0" tx="0.0" ty="0.0"/>
          <y:LineStyle color="#000000" type="line" width="1.0"/>
          <y:Arrows source="none" target="standard"/>
        </y:QuadCurveEdge>
      </data>
    </edge>
    <edge id="e17" source="n2" target="n6">
      <data key="d10">
        <y:QuadCurveEdge straightness="0.1">
          <y:Path sx="0.0" sy="0.0" tx="-48.0029296875" ty="0.0"/>
          <y:LineStyle color="#FF0000" type="line" width="2.0"/>
          <y:Arrows source="none" target="standard"/>
        </y:QuadCurveEdge>
      </data>
    </edge>
    <edge id="n1::e31" source="n1::n11" target="n1::n11">
      <data key="d10">
        <y:QuadCurveEdge straightness="0.1">
          <y:Path sx="0.0" sy="0.0" tx="0.0" ty="0.0"/>
          <y:LineStyle color="#000000" type="line" width="1.0"/>
          <y:Arrows source="none" target="standard"/>
        </y:QuadCurveEdge>
      </data>
    </edge>
    <edge id="e18" source="n7" target="n7">
      <data key="d10">
        <y:QuadCurveEdge straightness="0.1">
          <y:Path sx="0.0" sy="0.0" tx="0.0" ty="0.0"/>
          <y:LineStyle color="#000000" type="line" width="1.0"/>
          <y:Arrows source="none" target="standard"/>
        </y:QuadCurveEdge>
      </data>
    </edge>
    <edge id="e19" source="n7" target="n0">
      <data key="d9"/>
      <data key="d10">
        <y:PolyLineEdge>
          <y:Path sx="0.0" sy="0.0" tx="0.0" ty="0.0"/>
          <y:LineStyle color="#C0C0C0" type="line" width="2.0"/>
          <y:Arrows source="none" target="standard"/>
          <y:BendStyle smoothed="false"/>
        </y:PolyLineEdge>
      </data>
    </edge>
    <edge id="e20" source="n2" target="n7">
      <data key="d9"/>
      <data key="d10">
        <y:PolyLineEdge>
          <y:Path sx="0.0" sy="0.0" tx="0.0" ty="0.0"/>
          <y:LineStyle color="#C0C0C0" type="line" width="2.0"/>
          <y:Arrows source="none" target="standard"/>
          <y:BendStyle smoothed="false"/>
        </y:PolyLineEdge>
      </data>
    </edge>
    <edge id="n1::e32" source="n1::n0" target="n1::n0">
      <data key="d10">
        <y:QuadCurveEdge straightness="0.1">
          <y:Path sx="0.0" sy="0.0" tx="0.0" ty="0.0"/>
          <y:LineStyle color="#000000" type="line" width="1.0"/>
          <y:Arrows source="none" target="standard"/>
        </y:QuadCurveEdge>
      </data>
    </edge>
    <edge id="n1::e33" source="n1::n11" target="n1::n2">
      <data key="d10">
        <y:QuadCurveEdge straightness="0.1">
          <y:Path sx="48.0029296875" sy="0.0" tx="-48.0029296875" ty="0.0"/>
          <y:LineStyle color="#FF0000" type="line" width="2.0"/>
          <y:Arrows source="none" target="standard"/>
        </y:QuadCurveEdge>
      </data>
    </edge>
    <edge id="e21" source="n6" target="n6">
      <data key="d10">
        <y:QuadCurveEdge straightness="0.1">
          <y:Path sx="0.0" sy="0.0" tx="0.0" ty="0.0"/>
          <y:LineStyle color="#000000" type="line" width="1.0"/>
          <y:Arrows source="none" target="standard"/>
        </y:QuadCurveEdge>
      </data>
    </edge>
    <edge id="n1::e34" source="n1::n12" target="n1::n12">
      <data key="d10">
        <y:QuadCurveEdge straightness="0.1">
          <y:Path sx="0.0" sy="0.0" tx="0.0" ty="0.0"/>
          <y:LineStyle color="#000000" type="line" width="1.0"/>
          <y:Arrows source="none" target="standard"/>
        </y:QuadCurveEdge>
      </data>
    </edge>
    <edge id="e22" source="n1::n10" target="n8">
      <data key="d10">
        <y:QuadCurveEdge straightness="0.1">
          <y:Path sx="0.0" sy="0.0" tx="-0.6723494438861053" ty="-17.031138993205445"/>
          <y:LineStyle color="#C0C0C0" type="line" width="2.0"/>
          <y:Arrows source="none" target="standard"/>
        </y:QuadCurveEdge>
      </data>
    </edge>
    <edge id="e23" source="n2" target="n3">
      <data key="d10">
        <y:QuadCurveEdge straightness="0.1">
          <y:Path sx="0.0" sy="0.0" tx="0.0" ty="0.0"/>
          <y:LineStyle color="#FF0000" type="line" width="2.0"/>
          <y:Arrows source="none" target="standard"/>
        </y:QuadCurveEdge>
      </data>
    </edge>
    <edge id="n1::e35" source="n1::n1" target="n1::n11">
      <data key="d10">
        <y:QuadCurveEdge straightness="0.1">
          <y:Path sx="0.0" sy="0.0" tx="-48.0029296875" ty="0.0"/>
          <y:LineStyle color="#FF0000" type="line" width="2.0"/>
          <y:Arrows source="none" target="standard"/>
        </y:QuadCurveEdge>
      </data>
    </edge>
    <edge id="e24" source="n9" target="n0">
      <data key="d10">
        <y:QuadCurveEdge straightness="0.1">
          <y:Path sx="0.0" sy="0.0" tx="5.0" ty="0.0"/>
          <y:LineStyle color="#FF0000" type="line" width="2.0"/>
          <y:Arrows source="none" target="standard"/>
        </y:QuadCurveEdge>
      </data>
    </edge>
    <edge id="n1::e36" source="n1::n12" target="n1::n6">
      <data key="d10">
        <y:QuadCurveEdge straightness="0.1">
          <y:Path sx="0.0" sy="0.0" tx="0.0" ty="0.0"/>
          <y:LineStyle color="#000000" type="line" width="1.0"/>
          <y:Arrows source="none" target="standard"/>
        </y:QuadCurveEdge>
      </data>
    </edge>
    <edge id="n1::e37" source="n1::n12" target="n1::n4">
      <data key="d10">
        <y:QuadCurveEdge straightness="0.1">
          <y:Path sx="0.0" sy="0.0" tx="16.0" ty="0.0">
            <y:Point x="568.5" y="312.19362004597974"/>
          </y:Path>
          <y:LineStyle color="#000000" type="line" width="1.0"/>
          <y:Arrows source="none" target="standard"/>
        </y:QuadCurveEdge>
      </data>
    </edge>
    <edge id="n1::e38" source="n1::n12" target="n1::n1">
      <data key="d10">
        <y:QuadCurveEdge straightness="0.1">
          <y:Path sx="0.0" sy="0.0" tx="0.0" ty="0.0"/>
          <y:LineStyle color="#000000" type="line" width="1.0"/>
          <y:Arrows source="none" target="standard"/>
        </y:QuadCurveEdge>
      </data>
    </edge>
    <edge id="e25" source="n6" target="n5">
      <data key="d10">
        <y:QuadCurveEdge straightness="0.1">
          <y:Path sx="0.0" sy="0.0" tx="0.0" ty="0.0"/>
          <y:LineStyle color="#FF0000" type="line" width="2.0"/>
          <y:Arrows source="none" target="standard"/>
        </y:QuadCurveEdge>
      </data>
    </edge>
  </graph>
  <data key="d7">
    <y:Resources>
      <y:Resource id="1" xml:space="preserve">&lt;?xml version="1.0" encoding="utf-8"?&gt;
&lt;svg version="1.1" id="Ebene_1" xmlns="http://www.w3.org/2000/svg" xmlns:xlink="http://www.w3.org/1999/xlink" x="0px" y="0px"
	 width="57px" height="65px" viewBox="0 0 57 65" enable-background="new 0 0 57 65" xml:space="preserve"&gt;
&lt;g&gt;
	
		&lt;linearGradient id="SVGID_1_" gradientUnits="userSpaceOnUse" x1="26.5396" y1="-732.5005" x2="27.7805" y2="-762.2984" gradientTransform="matrix(1 0 0 -1 0.1201 -708.5371)"&gt;
		&lt;stop  offset="0.2711" style="stop-color:#FFAB4F"/&gt;
		&lt;stop  offset="1" style="stop-color:#FFD28F"/&gt;
	&lt;/linearGradient&gt;
	&lt;path fill="url(#SVGID_1_)" stroke="#ED9135" stroke-miterlimit="10" d="M49.529,51.225c-4.396-4.396-10.951-5.884-12.063-6.109
		V37.8H19.278c0,0,0.038,6.903,0,6.868c0,0-6.874,0.997-12.308,6.432C1.378,56.691,0.5,62.77,0.5,62.77
		c0,1.938,1.575,3.492,3.523,3.492h48.51c1.947,0,3.521-1.558,3.521-3.492C56.055,62.768,54.211,55.906,49.529,51.225z"/&gt;
	
		&lt;radialGradient id="face_x5F_white_1_" cx="27.7827" cy="-734.2632" r="23.424" fx="23.2131" fy="-736.753" gradientTransform="matrix(1 0 0 -1 0.1201 -708.5371)" gradientUnits="userSpaceOnUse"&gt;
		&lt;stop  offset="0" style="stop-color:#FFD28F"/&gt;
		&lt;stop  offset="1" style="stop-color:#FFAB4F"/&gt;
	&lt;/radialGradient&gt;
	&lt;path id="face_x5F_white_3_" fill="url(#face_x5F_white_1_)" stroke="#ED9135" stroke-miterlimit="10" d="M43.676,23.357
		c0.086,10.2-6.738,18.52-15.246,18.586c-8.503,0.068-15.467-8.146-15.553-18.344C12.794,13.4,19.618,5.079,28.123,5.012
		C36.627,4.945,43.59,13.158,43.676,23.357z"/&gt;
	
		&lt;linearGradient id="face_highlight_1_" gradientUnits="userSpaceOnUse" x1="2941.4297" y1="5677.457" x2="2965.0596" y2="5770.9087" gradientTransform="matrix(0.275 0 0 0.2733 -783.3976 -1543.4047)"&gt;
		&lt;stop  offset="0" style="stop-color:#FFFFFF;stop-opacity:0.42"/&gt;
		&lt;stop  offset="1" style="stop-color:#FFFFFF;stop-opacity:0.2067"/&gt;
	&lt;/linearGradient&gt;
	&lt;path id="face_highlight_3_" fill="url(#face_highlight_1_)" d="M27.958,6.333c-6.035,0.047-10.747,4.493-12.787,10.386
		c-0.664,1.919-0.294,4.043,0.98,5.629c2.73,3.398,5.729,6.283,9.461,8.088c3.137,1.518,7.535,2.385,11.893,1.247
		c2.274-0.592,3.988-2.459,4.375-4.766c0.183-1.094,0.293-2.289,0.283-3.553C42.083,13.952,36.271,6.268,27.958,6.333z"/&gt;
	&lt;path fill="#CC9869" stroke="#99724F" stroke-linecap="round" stroke-linejoin="round" d="M32.215,9.938
		c0,0,5.688,2.75,7.688,8.125c2.104,5.652,4.123,8.232,4.188,8c1.875-6.794,1.063-21.438-10.17-21.587
		c-20.455-7.663-25.58,11.962-23.893,19.65c1.078,4.911,2.234,6.686,3.938,8.08C13.966,32.205,15.028,17.563,32.215,9.938z"/&gt;
	
		&lt;radialGradient id="collar_x5F_body_2_" cx="15.1587" cy="-765.7056" r="32.4004" gradientTransform="matrix(1 0 0 -1 0.1201 -708.5371)" gradientUnits="userSpaceOnUse"&gt;
		&lt;stop  offset="0" style="stop-color:#B0E8FF"/&gt;
		&lt;stop  offset="1" style="stop-color:#74AEEE"/&gt;
	&lt;/radialGradient&gt;
	&lt;path id="collar_x5F_body_1_" fill="url(#collar_x5F_body_2_)" stroke="#5491CF" d="M0.5,62.768c0,1.938,1.575,3.494,3.523,3.494
		h48.51c1.947,0,3.521-1.559,3.521-3.494c0,0-1.844-6.861-6.525-11.543c-4.815-4.813-11.244-6.146-11.244-6.146
		c-1.771,1.655-5.61,2.802-10.063,2.802c-4.453,0-8.292-1.146-10.063-2.802c0,0-5.755,0.586-11.189,6.021
		C1.378,56.689,0.5,62.768,0.5,62.768z"/&gt;
	
		&lt;radialGradient id="collar_x5F_r_2_" cx="31.5" cy="-755.832" r="9.2834" gradientTransform="matrix(1 0 0 -1 0.1201 -708.5371)" gradientUnits="userSpaceOnUse"&gt;
		&lt;stop  offset="0" style="stop-color:#80CCFF"/&gt;
		&lt;stop  offset="1" style="stop-color:#74AEEE"/&gt;
	&lt;/radialGradient&gt;
	&lt;path id="collar_x5F_r_1_" fill="url(#collar_x5F_r_2_)" stroke="#5491CF" d="M38.159,41.381c0,0-0.574,2.369-3.013,4.441
		c-2.108,1.795-5.783,2.072-5.783,2.072l3.974,6.217c0,0,2.957-1.637,5.009-3.848c1.922-2.072,1.37-5.479,1.37-5.479L38.159,41.381z
		"/&gt;
	
		&lt;radialGradient id="collar_x5F_l_2_" cx="19.1377" cy="-755.873" r="9.2837" gradientTransform="matrix(1 0 0 -1 0.1201 -708.5371)" gradientUnits="userSpaceOnUse"&gt;
		&lt;stop  offset="0" style="stop-color:#80CCFF"/&gt;
		&lt;stop  offset="1" style="stop-color:#74AEEE"/&gt;
	&lt;/radialGradient&gt;
	&lt;path id="collar_x5F_l_1_" fill="url(#collar_x5F_l_2_)" stroke="#5491CF" d="M18.63,41.422c0,0,0.576,2.369,3.012,4.441
		c2.109,1.793,5.785,2.072,5.785,2.072l-3.974,6.217c0,0-2.957-1.637-5.007-3.85c-1.922-2.072-1.37-5.48-1.37-5.48L18.63,41.422z"/&gt;
	
		&lt;radialGradient id="Knob2_2_" cx="27.8872" cy="7.9414" r="0.9669" gradientTransform="matrix(1 0 0 -1 0.04 64.1543)" gradientUnits="userSpaceOnUse"&gt;
		&lt;stop  offset="0" style="stop-color:#80CCFF"/&gt;
		&lt;stop  offset="1" style="stop-color:#74AEEE"/&gt;
	&lt;/radialGradient&gt;
	&lt;circle id="Knob2_1_" fill="url(#Knob2_2_)" stroke="#5491CF" cx="28.258" cy="56.254" r="0.584"/&gt;
	
		&lt;radialGradient id="Knob1_2_" cx="27.9253" cy="1.6973" r="0.9669" gradientTransform="matrix(1 0 0 -1 0.04 64.1543)" gradientUnits="userSpaceOnUse"&gt;
		&lt;stop  offset="0" style="stop-color:#80CCFF"/&gt;
		&lt;stop  offset="1" style="stop-color:#74AEEE"/&gt;
	&lt;/radialGradient&gt;
	&lt;circle id="Knob1_1_" fill="url(#Knob1_2_)" stroke="#5491CF" cx="28.296" cy="62.499" r="0.584"/&gt;
&lt;/g&gt;
&lt;/svg&gt;
</y:Resource>
      <y:Resource id="2" xml:space="preserve">&lt;?xml version="1.0" encoding="utf-8"?&gt;
&lt;svg version="1.1"
	 xmlns="http://www.w3.org/2000/svg" xmlns:xlink="http://www.w3.org/1999/xlink"
	 x="0px" y="0px" width="68px" height="60px" viewBox="-0.435 -0.869 68 60" enable-background="new -0.435 -0.869 68 60"
	 xml:space="preserve"&gt;
&lt;defs&gt;
&lt;/defs&gt;
&lt;path fill="#666666" d="M52.462,30.881c-0.021,0-0.037,0.01-0.059,0.012c-0.021-0.002-0.037-0.012-0.059-0.012h-18.5v-7.555
	c0-0.414-0.335-0.75-0.75-0.75c-0.414,0-0.75,0.336-0.75,0.75v7.555h-18.5c-0.02,0-0.037,0.01-0.057,0.012
	c-0.02-0.002-0.037-0.012-0.057-0.012c-0.414,0-0.75,0.336-0.75,0.75v3.834c0,0.414,0.336,0.75,0.75,0.75s0.75-0.336,0.75-0.75
	v-3.084H51.71v3.084c0,0.414,0.336,0.75,0.75,0.75s0.75-0.336,0.75-0.75v-3.834C53.212,31.217,52.876,30.881,52.462,30.881z"/&gt;
&lt;linearGradient id="SVGID_1_" gradientUnits="userSpaceOnUse" x1="130.7236" y1="-184.1631" x2="130.7236" y2="-191.9565" gradientTransform="matrix(1 0 0 -1 -97.6001 -158.6377)"&gt;
	&lt;stop  offset="0" style="stop-color:#9CD7FF"/&gt;
	&lt;stop  offset="1" style="stop-color:#3C89C9"/&gt;
&lt;/linearGradient&gt;
&lt;path fill="url(#SVGID_1_)" d="M36.296,29.976c-0.832,0-1.513-0.681-1.513-1.513v-1.424c0-0.832-0.681-1.513-1.513-1.513h-0.214
	c-0.832,0-1.513,0.681-1.513,1.513v1.424c0,0.832-0.681,1.513-1.513,1.513h-2.499c-0.832,0-1.513,0.681-1.513,1.513v0.317
	c0,0.832,0.681,1.513,1.513,1.513h11.187c0.832,0,1.513-0.681,1.513-1.513v-0.317c0-0.833-0.681-1.513-1.513-1.513H36.296z"/&gt;
&lt;linearGradient id="SVGID_2_" gradientUnits="userSpaceOnUse" x1="605.8877" y1="2040.6665" x2="593.1709" y2="2040.6665" gradientTransform="matrix(1 0 0 1 -585.5996 -1982.4023)"&gt;
	&lt;stop  offset="0" style="stop-color:#4D4D4D"/&gt;
	&lt;stop  offset="1" style="stop-color:#999999"/&gt;
&lt;/linearGradient&gt;
&lt;path fill="url(#SVGID_2_)" d="M20.205,57.452c0,0.519-3.619,0.752-6.627,0.752c-2.083,0-5.846-0.186-6.089-0.678
	c0,0.238,0,0.806,0,0.89c0,0.389,2.573,0.661,6.084,0.661c3.511,0,6.632-0.344,6.632-0.729C20.205,58.264,20.205,57.7,20.205,57.452
	z"/&gt;
&lt;path fill="#808080" d="M13.846,56.806c3.512,0,6.358,0.313,6.358,0.699s-2.846,0.763-6.358,0.763c-3.59,0-6.358-0.375-6.358-0.763
	S10.335,56.806,13.846,56.806z"/&gt;
&lt;linearGradient id="SVGID_3_" gradientUnits="userSpaceOnUse" x1="600.833" y1="2037.4702" x2="598.1563" y2="2037.4702" gradientTransform="matrix(1 0 0 1 -585.5996 -1982.4023)"&gt;
	&lt;stop  offset="0" style="stop-color:#999999"/&gt;
	&lt;stop  offset="0.0417" style="stop-color:#8D8D8D"/&gt;
	&lt;stop  offset="0.1617" style="stop-color:#717171"/&gt;
	&lt;stop  offset="0.2821" style="stop-color:#5D5D5D"/&gt;
	&lt;stop  offset="0.4021" style="stop-color:#515151"/&gt;
	&lt;stop  offset="0.5212" style="stop-color:#4D4D4D"/&gt;
	&lt;stop  offset="0.6202" style="stop-color:#565656"/&gt;
	&lt;stop  offset="0.7817" style="stop-color:#6E6E6E"/&gt;
	&lt;stop  offset="0.9844" style="stop-color:#969696"/&gt;
	&lt;stop  offset="1" style="stop-color:#999999"/&gt;
&lt;/linearGradient&gt;
&lt;path fill="url(#SVGID_3_)" d="M15.215,57.657c0,0-0.792,0.053-1.339,0.053s-1.338-0.053-1.338-0.053v-5.231h2.677V57.657z"/&gt;
&lt;radialGradient id="SVGID_4_" cx="465.1113" cy="2023.4497" r="12.8975" gradientTransform="matrix(1.15 0 0 1 -526.6041 -1982.4023)" gradientUnits="userSpaceOnUse"&gt;
	&lt;stop  offset="0" style="stop-color:#F2F2F2"/&gt;
	&lt;stop  offset="1" style="stop-color:#666666"/&gt;
&lt;/radialGradient&gt;
&lt;path fill="url(#SVGID_4_)" d="M0.065,36.888c0-0.59,0.482-1.071,1.072-1.071H26.98c0.589,0,1.071,0.481,1.071,1.071v16.108
	c0,0.589-0.482,1.07-1.071,1.07H1.137c-0.59,0.002-1.072-0.481-1.072-1.07V36.888z"/&gt;
&lt;path fill="none" stroke="#666666" stroke-width="0.1305" stroke-linecap="round" stroke-linejoin="round" stroke-miterlimit="10" d="
	M0.065,36.888c0-0.59,0.482-1.071,1.072-1.071H26.98c0.589,0,1.071,0.481,1.071,1.071v16.108c0,0.589-0.482,1.07-1.071,1.07H1.137
	c-0.59,0.002-1.072-0.481-1.072-1.07V36.888z"/&gt;
&lt;radialGradient id="SVGID_5_" cx="439.1309" cy="2019.0845" r="28.5715" fx="461.6079" fy="2015.234" gradientTransform="matrix(1.1935 0 0 1 -509.6013 -1982.4023)" gradientUnits="userSpaceOnUse"&gt;
	&lt;stop  offset="0" style="stop-color:#4D4D4D"/&gt;
	&lt;stop  offset="1" style="stop-color:#999999"/&gt;
&lt;/radialGradient&gt;
&lt;path fill="url(#SVGID_5_)" d="M0.613,37.436c0-0.591,0.482-1.072,1.071-1.072h24.871c0.589,0,1.071,0.481,1.071,1.072v14.893
	c0,0.59-0.482,1.072-1.071,1.072H1.685c-0.589,0-1.071-0.482-1.071-1.072V37.436z"/&gt;
&lt;radialGradient id="SVGID_6_" cx="440.0439" cy="2019.1304" r="18.3134" gradientTransform="matrix(1.1923 0 0 1 -510.0601 -1982.4023)" gradientUnits="userSpaceOnUse"&gt;
	&lt;stop  offset="0" style="stop-color:#9CD7FF"/&gt;
	&lt;stop  offset="1" style="stop-color:#3C89C9"/&gt;
&lt;/radialGradient&gt;
&lt;path fill="url(#SVGID_6_)" d="M0.917,37.679c0-0.59,0.482-1.071,1.072-1.071h24.262c0.589,0,1.071,0.481,1.071,1.071v14.406
	c0,0.588-0.482,1.069-1.071,1.069H1.989c-0.59,0-1.072-0.481-1.072-1.069V37.679z"/&gt;
&lt;path opacity="0.24" fill="#F2F2F2" d="M0.917,49.11V37.679c0-0.59,0.482-1.071,1.072-1.071h24.262c0.589,0,1.071,0.481,1.071,1.071
	v7.252l-12.407,2.646c-0.57,0.146-1.52,0.293-2.107,0.326L0.917,49.11z"/&gt;
&lt;linearGradient id="SVGID_7_" gradientUnits="userSpaceOnUse" x1="644.3887" y1="2040.6665" x2="631.6719" y2="2040.6665" gradientTransform="matrix(1 0 0 1 -585.5996 -1982.4023)"&gt;
	&lt;stop  offset="0" style="stop-color:#4D4D4D"/&gt;
	&lt;stop  offset="1" style="stop-color:#999999"/&gt;
&lt;/linearGradient&gt;
&lt;path fill="url(#SVGID_7_)" d="M58.706,57.452c0,0.518-3.621,0.752-6.627,0.752c-2.084,0-5.848-0.186-6.09-0.678
	c0,0.237,0,0.805,0,0.889c0,0.389,2.572,0.662,6.084,0.662s6.633-0.344,6.633-0.729C58.706,58.263,58.706,57.7,58.706,57.452z"/&gt;
&lt;path fill="#808080" d="M52.347,56.805c3.512,0,6.357,0.313,6.357,0.699s-2.847,0.762-6.357,0.762c-3.59,0-6.357-0.373-6.357-0.762
	C45.989,57.118,48.837,56.805,52.347,56.805z"/&gt;
&lt;linearGradient id="SVGID_8_" gradientUnits="userSpaceOnUse" x1="639.333" y1="2037.4683" x2="636.6553" y2="2037.4683" gradientTransform="matrix(1 0 0 1 -585.5996 -1982.4023)"&gt;
	&lt;stop  offset="0" style="stop-color:#999999"/&gt;
	&lt;stop  offset="0.0417" style="stop-color:#8D8D8D"/&gt;
	&lt;stop  offset="0.1617" style="stop-color:#717171"/&gt;
	&lt;stop  offset="0.2821" style="stop-color:#5D5D5D"/&gt;
	&lt;stop  offset="0.4021" style="stop-color:#515151"/&gt;
	&lt;stop  offset="0.5212" style="stop-color:#4D4D4D"/&gt;
	&lt;stop  offset="0.6202" style="stop-color:#565656"/&gt;
	&lt;stop  offset="0.7817" style="stop-color:#6E6E6E"/&gt;
	&lt;stop  offset="0.9844" style="stop-color:#969696"/&gt;
	&lt;stop  offset="1" style="stop-color:#999999"/&gt;
&lt;/linearGradient&gt;
&lt;path fill="url(#SVGID_8_)" d="M53.716,57.657c0,0-0.791,0.052-1.34,0.052c-0.547,0-1.338-0.052-1.338-0.052v-5.232h2.678V57.657z"
	/&gt;
&lt;radialGradient id="SVGID_9_" cx="498.5898" cy="2023.4487" r="12.8975" gradientTransform="matrix(1.15 0 0 1 -526.6041 -1982.4023)" gradientUnits="userSpaceOnUse"&gt;
	&lt;stop  offset="0" style="stop-color:#F2F2F2"/&gt;
	&lt;stop  offset="1" style="stop-color:#666666"/&gt;
&lt;/radialGradient&gt;
&lt;path fill="url(#SVGID_9_)" d="M38.566,36.887c0-0.59,0.481-1.072,1.071-1.072h25.844c0.589,0,1.07,0.482,1.07,1.072v16.107
	c0,0.59-0.481,1.072-1.07,1.072H39.638c-0.59,0-1.071-0.482-1.071-1.072V36.887z"/&gt;
&lt;path fill="none" stroke="#666666" stroke-width="0.1305" stroke-linecap="round" stroke-linejoin="round" stroke-miterlimit="10" d="
	M38.566,36.887c0-0.59,0.481-1.072,1.071-1.072h25.844c0.589,0,1.07,0.482,1.07,1.072v16.107c0,0.59-0.481,1.072-1.07,1.072H39.638
	c-0.59,0-1.071-0.482-1.071-1.072V36.887z"/&gt;
&lt;radialGradient id="SVGID_10_" cx="471.3896" cy="2019.0845" r="28.5697" fx="493.8652" fy="2015.2343" gradientTransform="matrix(1.1935 0 0 1 -509.6013 -1982.4023)" gradientUnits="userSpaceOnUse"&gt;
	&lt;stop  offset="0" style="stop-color:#4D4D4D"/&gt;
	&lt;stop  offset="1" style="stop-color:#999999"/&gt;
&lt;/radialGradient&gt;
&lt;path fill="url(#SVGID_10_)" d="M39.114,37.434c0-0.59,0.482-1.072,1.071-1.072h24.87c0.589,0,1.07,0.482,1.07,1.072v14.895
	c0,0.589-0.481,1.07-1.07,1.07h-24.87c-0.589,0-1.071-0.481-1.071-1.07V37.434z"/&gt;
&lt;radialGradient id="SVGID_11_" cx="472.334" cy="2019.1294" r="18.3139" gradientTransform="matrix(1.1923 0 0 1 -510.0601 -1982.4023)" gradientUnits="userSpaceOnUse"&gt;
	&lt;stop  offset="0" style="stop-color:#9CD7FF"/&gt;
	&lt;stop  offset="1" style="stop-color:#3C89C9"/&gt;
&lt;/radialGradient&gt;
&lt;path fill="url(#SVGID_11_)" d="M39.419,37.678c0-0.59,0.481-1.072,1.07-1.072h24.264c0.588,0,1.07,0.482,1.07,1.072v14.406
	c0,0.588-0.482,1.07-1.07,1.07H40.489c-0.589,0-1.07-0.482-1.07-1.07V37.678z"/&gt;
&lt;path opacity="0.24" fill="#F2F2F2" d="M39.419,49.108v-11.43c0-0.59,0.481-1.072,1.07-1.072h24.264c0.588,0,1.07,0.482,1.07,1.072
	v7.252l-12.408,2.645c-0.57,0.146-1.52,0.295-2.106,0.326L39.419,49.108z"/&gt;
&lt;linearGradient id="SVGID_12_" gradientUnits="userSpaceOnUse" x1="624.8936" y1="2004.9155" x2="612.1787" y2="2004.9155" gradientTransform="matrix(1 0 0 1 -585.5996 -1982.4023)"&gt;
	&lt;stop  offset="0" style="stop-color:#4D4D4D"/&gt;
	&lt;stop  offset="1" style="stop-color:#999999"/&gt;
&lt;/linearGradient&gt;
&lt;path fill="url(#SVGID_12_)" d="M39.212,21.701c0,0.518-3.621,0.752-6.626,0.752c-2.083,0-5.847-0.186-6.089-0.678
	c0,0.238,0,0.805,0,0.889c0,0.389,2.573,0.662,6.084,0.662c3.51,0,6.631-0.344,6.631-0.729
	C39.212,22.513,39.212,21.949,39.212,21.701z"/&gt;
&lt;path fill="#808080" d="M32.854,21.055c3.511,0,6.358,0.313,6.358,0.699c0,0.386-2.848,0.762-6.358,0.762
	c-3.589,0-6.358-0.374-6.358-0.762C26.496,21.367,29.342,21.055,32.854,21.055z"/&gt;
&lt;linearGradient id="SVGID_13_" gradientUnits="userSpaceOnUse" x1="619.8379" y1="2001.7183" x2="617.1611" y2="2001.7183" gradientTransform="matrix(1 0 0 1 -585.5996 -1982.4023)"&gt;
	&lt;stop  offset="0" style="stop-color:#999999"/&gt;
	&lt;stop  offset="0.0417" style="stop-color:#8D8D8D"/&gt;
	&lt;stop  offset="0.1617" style="stop-color:#717171"/&gt;
	&lt;stop  offset="0.2821" style="stop-color:#5D5D5D"/&gt;
	&lt;stop  offset="0.4021" style="stop-color:#515151"/&gt;
	&lt;stop  offset="0.5212" style="stop-color:#4D4D4D"/&gt;
	&lt;stop  offset="0.6202" style="stop-color:#565656"/&gt;
	&lt;stop  offset="0.7817" style="stop-color:#6E6E6E"/&gt;
	&lt;stop  offset="0.9844" style="stop-color:#969696"/&gt;
	&lt;stop  offset="1" style="stop-color:#999999"/&gt;
&lt;/linearGradient&gt;
&lt;path fill="url(#SVGID_13_)" d="M34.222,21.906c0,0-0.791,0.052-1.338,0.052c-0.547,0-1.338-0.052-1.338-0.052v-5.232h2.677
	L34.222,21.906L34.222,21.906z"/&gt;
&lt;radialGradient id="SVGID_14_" cx="481.6387" cy="1987.6978" r="12.8975" gradientTransform="matrix(1.15 0 0 1 -526.6041 -1982.4023)" gradientUnits="userSpaceOnUse"&gt;
	&lt;stop  offset="0" style="stop-color:#F2F2F2"/&gt;
	&lt;stop  offset="1" style="stop-color:#666666"/&gt;
&lt;/radialGradient&gt;
&lt;path fill="url(#SVGID_14_)" d="M19.072,1.137c0-0.59,0.482-1.072,1.071-1.072h25.843c0.589,0,1.071,0.482,1.071,1.072v16.108
	c0,0.589-0.482,1.071-1.071,1.071H20.145c-0.589,0-1.071-0.482-1.071-1.071L19.072,1.137L19.072,1.137z"/&gt;
&lt;path fill="none" stroke="#666666" stroke-width="0.1305" stroke-linecap="round" stroke-linejoin="round" stroke-miterlimit="10" d="
	M19.072,1.137c0-0.59,0.482-1.072,1.071-1.072h25.843c0.589,0,1.071,0.482,1.071,1.072v16.108c0,0.589-0.482,1.071-1.071,1.071
	H20.145c-0.589,0-1.071-0.482-1.071-1.071L19.072,1.137L19.072,1.137z"/&gt;
&lt;radialGradient id="SVGID_15_" cx="455.0566" cy="1983.3345" r="28.5689" fx="477.5316" fy="1979.4844" gradientTransform="matrix(1.1935 0 0 1 -509.6013 -1982.4023)" gradientUnits="userSpaceOnUse"&gt;
	&lt;stop  offset="0" style="stop-color:#4D4D4D"/&gt;
	&lt;stop  offset="1" style="stop-color:#999999"/&gt;
&lt;/radialGradient&gt;
&lt;path fill="url(#SVGID_15_)" d="M19.621,1.685c0-0.59,0.482-1.072,1.072-1.072h24.87c0.589,0,1.071,0.482,1.071,1.072v14.894
	c0,0.589-0.482,1.071-1.071,1.071h-24.87c-0.589,0-1.072-0.482-1.072-1.071V1.685z"/&gt;
&lt;radialGradient id="SVGID_16_" cx="455.9854" cy="1983.3784" r="18.3134" gradientTransform="matrix(1.1923 0 0 1 -510.0601 -1982.4023)" gradientUnits="userSpaceOnUse"&gt;
	&lt;stop  offset="0" style="stop-color:#9CD7FF"/&gt;
	&lt;stop  offset="1" style="stop-color:#3C89C9"/&gt;
&lt;/radialGradient&gt;
&lt;path fill="url(#SVGID_16_)" d="M19.924,1.928c0-0.59,0.482-1.072,1.072-1.072h24.262c0.589,0,1.07,0.482,1.07,1.072v14.406
	c0,0.588-0.481,1.07-1.07,1.07H20.997c-0.589,0-1.072-0.482-1.072-1.07V1.928z"/&gt;
&lt;path opacity="0.24" fill="#F2F2F2" d="M19.924,13.358V1.928c0-0.59,0.482-1.072,1.072-1.072h24.262c0.589,0,1.07,0.482,1.07,1.072
	V9.18l-12.408,2.646c-0.569,0.146-1.519,0.294-2.106,0.326L19.924,13.358z"/&gt;
&lt;/svg&gt;
</y:Resource>
      <y:Resource id="3" xml:space="preserve">&lt;?xml version="1.0" encoding="utf-8"?&gt;
&lt;svg version="1.1"
	 xmlns="http://www.w3.org/2000/svg" xmlns:xlink="http://www.w3.org/1999/xlink"
	 x="0px" y="0px" width="41px" height="48px" viewBox="-0.875 -0.887 41 48" enable-background="new -0.875 -0.887 41 48"
	 xml:space="preserve"&gt;
&lt;defs&gt;
&lt;/defs&gt;
&lt;linearGradient id="SVGID_1_" gradientUnits="userSpaceOnUse" x1="642.8008" y1="-979.1445" x2="682.0508" y2="-979.1445" gradientTransform="matrix(1 0 0 -1 -642.8008 -939.4756)"&gt;
	&lt;stop  offset="0" style="stop-color:#3C89C9"/&gt;
	&lt;stop  offset="0.1482" style="stop-color:#60A6DD"/&gt;
	&lt;stop  offset="0.3113" style="stop-color:#81C1F0"/&gt;
	&lt;stop  offset="0.4476" style="stop-color:#95D1FB"/&gt;
	&lt;stop  offset="0.5394" style="stop-color:#9CD7FF"/&gt;
	&lt;stop  offset="0.636" style="stop-color:#98D4FD"/&gt;
	&lt;stop  offset="0.7293" style="stop-color:#8DCAF6"/&gt;
	&lt;stop  offset="0.8214" style="stop-color:#79BBEB"/&gt;
	&lt;stop  offset="0.912" style="stop-color:#5EA5DC"/&gt;
	&lt;stop  offset="1" style="stop-color:#3C89C9"/&gt;
&lt;/linearGradient&gt;
&lt;path fill="url(#SVGID_1_)" d="M19.625,36.763C8.787,36.763,0,34.888,0,32.575v10c0,2.313,8.787,4.188,19.625,4.188
	c10.839,0,19.625-1.875,19.625-4.188v-10C39.25,34.888,30.464,36.763,19.625,36.763z"/&gt;
&lt;linearGradient id="SVGID_2_" gradientUnits="userSpaceOnUse" x1="642.8008" y1="-973.1445" x2="682.0508" y2="-973.1445" gradientTransform="matrix(1 0 0 -1 -642.8008 -939.4756)"&gt;
	&lt;stop  offset="0" style="stop-color:#9CD7FF"/&gt;
	&lt;stop  offset="0.0039" style="stop-color:#9DD7FF"/&gt;
	&lt;stop  offset="0.2273" style="stop-color:#BDE5FF"/&gt;
	&lt;stop  offset="0.4138" style="stop-color:#D1EEFF"/&gt;
	&lt;stop  offset="0.5394" style="stop-color:#D9F1FF"/&gt;
	&lt;stop  offset="0.6155" style="stop-color:#D5EFFE"/&gt;
	&lt;stop  offset="0.6891" style="stop-color:#C9E7FA"/&gt;
	&lt;stop  offset="0.7617" style="stop-color:#B6DAF3"/&gt;
	&lt;stop  offset="0.8337" style="stop-color:#9AC8EA"/&gt;
	&lt;stop  offset="0.9052" style="stop-color:#77B0DD"/&gt;
	&lt;stop  offset="0.9754" style="stop-color:#4D94CF"/&gt;
	&lt;stop  offset="1" style="stop-color:#3C89C9"/&gt;
&lt;/linearGradient&gt;
&lt;path fill="url(#SVGID_2_)" d="M19.625,36.763c10.839,0,19.625-1.875,19.625-4.188l-1.229-2c0,2.168-8.235,3.927-18.396,3.927
	c-9.481,0-17.396-1.959-18.396-3.927l-1.229,2C0,34.888,8.787,36.763,19.625,36.763z"/&gt;
&lt;path fill="#3C89C9" d="M19.625,26.468c10.16,0,19.625,2.775,19.625,2.775c-0.375,2.721-5.367,5.438-19.554,5.438
	c-12.125,0-18.467-2.484-19.541-4.918C-0.127,29.125,9.465,26.468,19.625,26.468z"/&gt;
&lt;linearGradient id="SVGID_3_" gradientUnits="userSpaceOnUse" x1="642.8008" y1="-965.6948" x2="682.0508" y2="-965.6948" gradientTransform="matrix(1 0 0 -1 -642.8008 -939.4756)"&gt;
	&lt;stop  offset="0" style="stop-color:#3C89C9"/&gt;
	&lt;stop  offset="0.1482" style="stop-color:#60A6DD"/&gt;
	&lt;stop  offset="0.3113" style="stop-color:#81C1F0"/&gt;
	&lt;stop  offset="0.4476" style="stop-color:#95D1FB"/&gt;
	&lt;stop  offset="0.5394" style="stop-color:#9CD7FF"/&gt;
	&lt;stop  offset="0.636" style="stop-color:#98D4FD"/&gt;
	&lt;stop  offset="0.7293" style="stop-color:#8DCAF6"/&gt;
	&lt;stop  offset="0.8214" style="stop-color:#79BBEB"/&gt;
	&lt;stop  offset="0.912" style="stop-color:#5EA5DC"/&gt;
	&lt;stop  offset="1" style="stop-color:#3C89C9"/&gt;
&lt;/linearGradient&gt;
&lt;path fill="url(#SVGID_3_)" d="M19.625,23.313C8.787,23.313,0,21.438,0,19.125v10c0,2.313,8.787,4.188,19.625,4.188
	c10.839,0,19.625-1.875,19.625-4.188v-10C39.25,21.438,30.464,23.313,19.625,23.313z"/&gt;
&lt;linearGradient id="SVGID_4_" gradientUnits="userSpaceOnUse" x1="642.8008" y1="-959.6948" x2="682.0508" y2="-959.6948" gradientTransform="matrix(1 0 0 -1 -642.8008 -939.4756)"&gt;
	&lt;stop  offset="0" style="stop-color:#9CD7FF"/&gt;
	&lt;stop  offset="0.0039" style="stop-color:#9DD7FF"/&gt;
	&lt;stop  offset="0.2273" style="stop-color:#BDE5FF"/&gt;
	&lt;stop  offset="0.4138" style="stop-color:#D1EEFF"/&gt;
	&lt;stop  offset="0.5394" style="stop-color:#D9F1FF"/&gt;
	&lt;stop  offset="0.6155" style="stop-color:#D5EFFE"/&gt;
	&lt;stop  offset="0.6891" style="stop-color:#C9E7FA"/&gt;
	&lt;stop  offset="0.7617" style="stop-color:#B6DAF3"/&gt;
	&lt;stop  offset="0.8337" style="stop-color:#9AC8EA"/&gt;
	&lt;stop  offset="0.9052" style="stop-color:#77B0DD"/&gt;
	&lt;stop  offset="0.9754" style="stop-color:#4D94CF"/&gt;
	&lt;stop  offset="1" style="stop-color:#3C89C9"/&gt;
&lt;/linearGradient&gt;
&lt;path fill="url(#SVGID_4_)" d="M19.625,23.313c10.839,0,19.625-1.875,19.625-4.188l-1.229-2c0,2.168-8.235,3.926-18.396,3.926
	c-9.481,0-17.396-1.959-18.396-3.926l-1.229,2C0,21.438,8.787,23.313,19.625,23.313z"/&gt;
&lt;path fill="#3C89C9" d="M19.476,13.019c10.161,0,19.625,2.775,19.625,2.775c-0.375,2.721-5.367,5.438-19.555,5.438
	c-12.125,0-18.467-2.485-19.541-4.918C-0.277,15.674,9.316,13.019,19.476,13.019z"/&gt;
&lt;linearGradient id="SVGID_5_" gradientUnits="userSpaceOnUse" x1="642.8008" y1="-952.4946" x2="682.0508" y2="-952.4946" gradientTransform="matrix(1 0 0 -1 -642.8008 -939.4756)"&gt;
	&lt;stop  offset="0" style="stop-color:#3C89C9"/&gt;
	&lt;stop  offset="0.1482" style="stop-color:#60A6DD"/&gt;
	&lt;stop  offset="0.3113" style="stop-color:#81C1F0"/&gt;
	&lt;stop  offset="0.4476" style="stop-color:#95D1FB"/&gt;
	&lt;stop  offset="0.5394" style="stop-color:#9CD7FF"/&gt;
	&lt;stop  offset="0.636" style="stop-color:#98D4FD"/&gt;
	&lt;stop  offset="0.7293" style="stop-color:#8DCAF6"/&gt;
	&lt;stop  offset="0.8214" style="stop-color:#79BBEB"/&gt;
	&lt;stop  offset="0.912" style="stop-color:#5EA5DC"/&gt;
	&lt;stop  offset="1" style="stop-color:#3C89C9"/&gt;
&lt;/linearGradient&gt;
&lt;path fill="url(#SVGID_5_)" d="M19.625,10.113C8.787,10.113,0,8.238,0,5.925v10c0,2.313,8.787,4.188,19.625,4.188
	c10.839,0,19.625-1.875,19.625-4.188v-10C39.25,8.238,30.464,10.113,19.625,10.113z"/&gt;
&lt;linearGradient id="SVGID_6_" gradientUnits="userSpaceOnUse" x1="642.8008" y1="-946.4946" x2="682.0508" y2="-946.4946" gradientTransform="matrix(1 0 0 -1 -642.8008 -939.4756)"&gt;
	&lt;stop  offset="0" style="stop-color:#9CD7FF"/&gt;
	&lt;stop  offset="0.0039" style="stop-color:#9DD7FF"/&gt;
	&lt;stop  offset="0.2273" style="stop-color:#BDE5FF"/&gt;
	&lt;stop  offset="0.4138" style="stop-color:#D1EEFF"/&gt;
	&lt;stop  offset="0.5394" style="stop-color:#D9F1FF"/&gt;
	&lt;stop  offset="0.6155" style="stop-color:#D5EFFE"/&gt;
	&lt;stop  offset="0.6891" style="stop-color:#C9E7FA"/&gt;
	&lt;stop  offset="0.7617" style="stop-color:#B6DAF3"/&gt;
	&lt;stop  offset="0.8337" style="stop-color:#9AC8EA"/&gt;
	&lt;stop  offset="0.9052" style="stop-color:#77B0DD"/&gt;
	&lt;stop  offset="0.9754" style="stop-color:#4D94CF"/&gt;
	&lt;stop  offset="1" style="stop-color:#3C89C9"/&gt;
&lt;/linearGradient&gt;
&lt;path fill="url(#SVGID_6_)" d="M19.625,10.113c10.839,0,19.625-1.875,19.625-4.188l-1.229-2c0,2.168-8.235,3.926-18.396,3.926
	c-9.481,0-17.396-1.959-18.396-3.926L0,5.925C0,8.238,8.787,10.113,19.625,10.113z"/&gt;
&lt;linearGradient id="SVGID_7_" gradientUnits="userSpaceOnUse" x1="644.0293" y1="-943.4014" x2="680.8223" y2="-943.4014" gradientTransform="matrix(1 0 0 -1 -642.8008 -939.4756)"&gt;
	&lt;stop  offset="0" style="stop-color:#9CD7FF"/&gt;
	&lt;stop  offset="1" style="stop-color:#3C89C9"/&gt;
&lt;/linearGradient&gt;
&lt;ellipse fill="url(#SVGID_7_)" cx="19.625" cy="3.926" rx="18.396" ry="3.926"/&gt;
&lt;path opacity="0.24" fill="#FFFFFF" enable-background="new    " d="M31.04,45.982c0,0-4.354,0.664-7.29,0.781
	c-3.125,0.125-8.952,0-8.952,0l-2.384-10.292l0.044-2.108l-1.251-1.154L9.789,23.024l-0.082-0.119L9.5,20.529l-1.65-1.254
	L5.329,8.793c0,0,4.213,0.903,7.234,1.07s8.375,0.25,8.375,0.25l3,9.875l-0.25,1.313l1.063,2.168l2.312,9.645l-0.521,1.416
	l1.46,1.834L31.04,45.982z"/&gt;
&lt;/svg&gt;
</y:Resource>
      <y:Resource id="4" type="java.awt.image.BufferedImage" xml:space="preserve">iVBORw0KGgoAAAANSUhEUgAAADAAAAAwCAYAAABXAvmHAAADJklEQVR4Xu1Yu24TQRRdmYLwEKLi&#13;
IUHPUwgqJBrEo6CgR0K8qYwMJlg2tsfOAnJr+AEgPCr/AAIRkKAMNOHVRxBIbyIiJcC5uzPW7M2u&#13;
vWvMeizNka5sz947e87cM7uTOI6FhYWFxaCQy+VW1+v1E5VK5YYQwjUpqtXqTcRJ13XHOG8PtVrt&#13;
VLlc/o7kP4bHPIScDpDHQD4k0egA53GPfKlU2oeBZXUBXZjF5z0R0sZhBmzdlNwUzyW4Zr+DH0/U&#13;
IOJNoVBYF2iPQSBuEPJW4/uUBHxTA54iwwEBB7QuzJGAjn0gYC8vMA3EUevAbxLQ2RhQ9BNxjheZ&#13;
AnC7QBx1zgEBiCn5OYnn7Vo+wbAgvf+IcVwpALkZ4e/6ZSj9WCwWd/LJ0gYssxt8PhMniJhwfI6R&#13;
Ajwg8SgE/MBYGxOc1eZLFbj3RWlresEeUeM9BRBgoS0ofCWvPWg2m2v06/8TumXwwnrZaDQ269dj&#13;
CZDIYBVuCd9SH9KwVJhleE4SAR5w7RhiHtHGYe8Mvz4oRFmGI7EAAlZjKyZ+TXn4fn+QliLLwCqP&#13;
ae4wy3D0JYDQarVW4QZ3hLQUYgfPSQrstT2ih2U4+hZAoE6g1Z9kzT9ZCvWXsAgLNBc+Z+jBwXPC&#13;
0LcAkD0u5F5AJ7LKUiLhU4pbBotyRXqfHt2R3ldILCDKOjSOm9+W47FefGQZ5H6RNXVHWgbfd8nO&#13;
0tnMVeNhSCQgzubVX3zlLmcp5F0myyDmkHuYX6fjC8YnJZ+pKEvFFiASPD7pZnRTOVfgLJXNZtcr&#13;
y4D8C1hok17LAaHnu1kqjoBMUmtIUN2ErJuFJe4K/6+7r/i9BBGCcnhRGLpZqqsAfoTQVzIucOND&#13;
mOM5rSLmaCOegfxBntcLUZaKFGDKIY6DWypSgEhumdTALBUuAG1+2I9l0gKzVEfAL/UDCRt4kWnI&#13;
5/MbFV90ZYFa817rwFVeYBrA87rWgWn6r9y4NrBIIkglLxw25MoT+UXFF5v7GvlqjDauJmIkApxn&#13;
6J/Rnjqs+vZREkHksfDbAi2iTgi/Re9oc/CiYYfkNE226ay8hYWFhYXFqOMvPxn/bWzo2RgAAAAA&#13;
SUVORK5CYII=</y:Resource>
      <y:Resource id="5" type="java.awt.image.BufferedImage" xml:space="preserve">iVBORw0KGgoAAAANSUhEUgAAADAAAAAwCAYAAABXAvmHAAAJLUlEQVR4Xu1ae3BU1Rm3T6d/9DV9&#13;
DiSb3bwTSIACVVtAtKJAsUXtFNFBK4qMZaRap1Yrkn0/khAhAUMCYuUlwfIQlXdACyrQ7N177yZu&#13;
SEKQBkICee3efWV3s6fft3Dx7tm7ySZZnekMv5nfJLn3PH7feXzfd87NLbfcxP8LCPnaOHXDt+nH&#13;
I8XkqrpvYZv0cxoK9X/SUzXW+1L07Fj63bCQpmUWKzTMGfo5jRRtXYFCbZ1HU6m2zZSWg7b2pWpt&#13;
/5A+i8LOnd8osPA1U1fZXY9va+mdUMILhcVcKV0sYWSqT31PoWby6ec00nU256zKc32z1kcz08B6&#13;
leq6XLFcSpE1c4y67sfSulLkmW0vPvH2OXdwIEwQnsAAmV3lcKVp2AfosklDZnnzrRk6zrfhNCE0&#13;
717X0qvQ2GbRdeLhF6W8vf6yNyJexEFHL4Hne+iySUOajlMVFjf00eKRD775Xw8smT/RdeIBhDK2&#13;
i54oA/bV95CJJXwNXTYxqMnX03Xcy6lqbjz9SoRCXTdtWnlTDy0e+cSODqLUMivpOiIUJv6HSi1r&#13;
gr3yA/w718gufXDTWcHdPxAR3+UJkunlDa50HXMPXXdogPhsA/fWba81erMMnKAqYv5AF0GAt1gw&#13;
t/q8ixaPXL6nm+QYuc10HYRCy47LNrDtd65t9kM/jogR4KFgE6/KN3Pu2esdPXkm1p1n4Z6j6w6N&#13;
6+JnVDS5Kz8dIOZaHxlvsbthU5rxnVgspeyT78Amr3xka3uIFo98Zb+LZOm5epXB/jNp80qdbX6W&#13;
kXP97b2+SLlF29v7bxgByLE0flelZSZg+9J6iYESL4qpOBkiM9Y2ubON3FHoaGKexb4hx8j3zqlq&#13;
FUo/7I8Rj8T6f3zroj/fZHfCABxO1VqnQ9tGHAzTMV9U2UXbwAgj58BlRUsaEujvU9VMBf4OjfyT&#13;
Fi+y6nSYLNh80T/ObHct3XllQK6MHKuBL77vJJPLHH0z1zULOBh0GeSi7Zf7Ybk2ovumNQ4KDEQp&#13;
autsHP1MA3dh+d6eMN34V0HLcT/J0LMejBe0xoSRorNlZelZp/6oN6aDL5NrPw6RQku9oNQwCyNC&#13;
MOVQH/8mJS8xpGmYOflmu3vNiWBMR18Gq08Rcte6Zjd4pTJRA3i35xVa6yGprmEhy8iuuGNNo1B1&#13;
KhzTYbK5cOslXPsfYi4k9j/WePpHaTprnlTT8ABTCI0effqdK3H3A7rXRdsuy7pQkX/Z2xMS3aUc&#13;
DbVekqlnu9PNdd+nJYwa4CZbNIc9MZ0i//pub3i8hfePs9j99Dsp51S3CjkmNvTw5kt+9Eb0+3Wf&#13;
DECw41044nT/owLkMFN/Xd7kpDtEFh1yk0kl9T7mopskYsAurpvcv7HJs3hHZ4B+j3xse0cw32Iv&#13;
ojWMHLB88sz8nufe7YnpDL0FBCI/Jl1OXyghAw46+ojLHyITSux+uRkt+3eAQPzplO6BhKHSMzOy&#13;
jWxFnon/AMhDiO9U6Vj/hJIGAaeX7uxpCGAv7L0QyXmHYwDi/YZeck9li0CXQd63vtWp0rP+TD3X&#13;
k2vmG4G1OQb+DeVQ2SyE+TMPb7lEcKNpj3jIazAa6NboDkTC0vE0dvoigoZrAB5UCop5P/ZBl0Pi&#13;
HqmAGTYc9ZGXPnCSZbu7iEprC9Cao4AGqGFN043JEWeksNh+TT0AlwVkm4F4qQGmHtPLm7yHGq8Z&#13;
gFi8vdX1d0gr6LLxmA6rgdYcheEYgNH53spG1w01gNJj7f2FxfU+OnKvORnE5M/z6JYWDx4NRVhq&#13;
LwVgGca0HY9JNUB3JGKAINEfwfFmJ0GX+uzu7kjMwI1aAEat+agjcO10+wUste3BJ2s6Y9qOx6Qa&#13;
gB4I1zClKYK23n4yo8Lhvfv1Fl8B7IuPW6Mm6gbg0C4MFthoJmQAjoi4gXHd0o1ICa7Qe75b1gbi&#13;
Dw6Q1092hNudAfpVBKFwGOv7Sj+SPz8g6Y2crrP105qjACemh3JN9n15ZrsNfPFlsNgHP92/Kj/r&#13;
lMv3H3u7I/jq/jZ5C4bA0bN95M61TbJu9KE321x5cPDB/iEbvgq/NwAPQZReQWseEnikg4q1L+yL&#13;
nWrMUCGQ+Ryd0dcfQwEP6retbvCuOCDEtLka2oSB7P65kflJIjd3CQHOrTNnrmuRPayjG5y6qt53&#13;
1R2kdcoiEApD0nfOi8dLui3kEgiOkL6X0BpGBxiJHBPXZqyNPruKfOZfXUGICX5rm5vWG4UOVwCi&#13;
r8Mzb8PnHrnUfP2nYZJr4l2pRcwYWsKoAWF93+Kazrjp9Mv7XWQKzAQtWopnd13wPLq1fUAuE0Xq&#13;
wHnAMfLKyG4gBkGGjl06adVngtxGFokRGGeBFi3FkppWQW4vSfn7TRe8WQZ+98jWP2SACi1zBA/2&#13;
4qM0LXMHbGJhVZzrkmQbgEvr9tWNQrqefUnUgNf6Co31mErH5YjP4iJNY10m3hrjnXymget+9WCs&#13;
t6CZLAOQ6InAbQpKnXV2RBTMBgzs8uHdE0UutfiGpTuvDtAdyDGZBiD1RyLHS+cY/ZlUWlpiAKuz&#13;
TdyBOVXnPXIRGTfiUzVXQlPKPuv9866u8OoTgYQNwKg6vaKpb97Gz2UvzZDLdnWFwICLkXgwUuBn&#13;
oCwjf2hudbQR6O5+C64w28BxeAkG0fq9LAPrwXSaFi3FA5uavLlGHsrxrFJvXYA3f5PBOeApTE78&#13;
qD8rISJGGPjDohGYI00pcwhZRnar9JuZUs3n5pnZQUPywi3NQupK9nlp+yqDbRk6CTGJTKp4ESgU&#13;
RuvIbyrP4QgKSiO3nHZzeJtcWMzLp53X8cw7rX2patt8aT0EHmXBWfT8buOF4KjFwxn43kml9tMT&#13;
S3lGpfviOwAaActkfYaGvUtaXsRoDECkq+sUkLxtHZV4/PqCIjB/x7Tgl2V2F/11MR5Ga0BSkGGw&#13;
vVJxouPGma/G1kUKLFw1XS6yfJK4hKIwogh8HUq97fElO1rd4tEPc/1sY+y3XIiKxQo1s0b6DA3I&#13;
1Nv6Vx5o88bjtPIG72AGZBRxP03TMFfGqrkU+l1CwHU+vpg/M6eqsXf+G2d7883cWTwP0OXGFrHZ&#13;
MZetMHJpWtsjwKfiUsM8KX46kgUEz7Qi29wRXWrdADSiLLLejp+AIv8OcBM3MSj+B7BbNohzXrU7&#13;
AAAAAElFTkSuQmCC</y:Resource>
    </y:Resources>
  </data>
</graphml>
